<?xml version="1.0" encoding="UTF-8" standalone="no"?>
<!-- Created with Inkscape (http://www.inkscape.org/) -->

<svg
   xmlns:dc="http://purl.org/dc/elements/1.1/"
   xmlns:cc="http://creativecommons.org/ns#"
   xmlns:rdf="http://www.w3.org/1999/02/22-rdf-syntax-ns#"
   xmlns:svg="http://www.w3.org/2000/svg"
   xmlns="http://www.w3.org/2000/svg"
   xmlns:sodipodi="http://sodipodi.sourceforge.net/DTD/sodipodi-0.dtd"
   xmlns:inkscape="http://www.inkscape.org/namespaces/inkscape"
   width="720"
   height="720"
   id="svg2"
   version="1.1"
   inkscape:version="0.48.4 r9939"
   sodipodi:docname="kagaku.svg">
  <defs
     id="defs4" />
  <sodipodi:namedview
     id="base"
     pagecolor="#ffffff"
     bordercolor="#666666"
     borderopacity="1.0"
     inkscape:pageopacity="0.0"
     inkscape:pageshadow="2"
     inkscape:zoom="0.5"
     inkscape:cx="360"
     inkscape:cy="360"
     inkscape:document-units="px"
     inkscape:current-layer="layer1"
     showgrid="false"
     inkscape:window-width="1920"
     inkscape:window-height="1148"
     inkscape:window-x="0"
     inkscape:window-y="0"
     inkscape:window-maximized="1" />
  <metadata
     id="metadata7">
    <rdf:RDF>
      <cc:Work
         rdf:about="">
        <dc:format>image/svg+xml</dc:format>
        <dc:type
           rdf:resource="http://purl.org/dc/dcmitype/StillImage" />
        <dc:title></dc:title>
      </cc:Work>
    </rdf:RDF>
  </metadata>
  <g
     inkscape:label="レイヤー 1"
     inkscape:groupmode="layer"
     id="layer1"
     transform="translate(0,-332.36218)">
    <flowRoot
       xml:space="preserve"
       id="flowRoot2985"
       style="font-size:144px;font-style:normal;font-variant:normal;font-weight:normal;font-stretch:normal;text-align:start;line-height:125%;letter-spacing:0px;word-spacing:0px;writing-mode:lr-tb;text-anchor:start;fill:#6f2530;fill-opacity:1;stroke:none;font-family:'ふい字';-inkscape-font-specification:'ふい字'"
       transform="matrix(2.7147402,0,0,2.7147402,-86.0927,-436.14975)"><flowRegion
         id="flowRegion2987"><rect
           id="rect2989"
           width="384"
           height="471"
           x="158"
           y="249"
           style="fill:#6f2530;fill-opacity:1" /></flowRegion><flowPara
         id="flowPara2991">黒</flowPara></flowRoot>    <flowRoot
       xml:space="preserve"
       id="flowRoot2985-2"
       style="font-size:144px;font-style:normal;font-variant:normal;font-weight:normal;font-stretch:normal;text-align:start;line-height:125%;letter-spacing:0px;word-spacing:0px;writing-mode:lr-tb;text-anchor:start;fill:#6f2530;fill-opacity:1;stroke:none;font-family:'ふい字';-inkscape-font-specification:'ふい字'"
       transform="matrix(2.7147402,0,0,2.7147402,-113.80232,-113.39975)"><flowRegion
         id="flowRegion2987-7"><rect
           id="rect2989-4"
           width="384"
           height="471"
           x="158"
           y="249"
           style="fill:#6f2530;fill-opacity:1" /></flowRegion><flowPara
         id="flowPara2991-9">猫</flowPara></flowRoot>    <flowRoot
       xml:space="preserve"
       id="flowRoot2985-21"
       style="font-size:144px;font-style:normal;font-variant:normal;font-weight:normal;font-stretch:normal;text-align:start;line-height:125%;letter-spacing:0px;word-spacing:0px;writing-mode:lr-tb;text-anchor:start;fill:#6f2530;fill-opacity:1;stroke:none;font-family:'ふい字';-inkscape-font-specification:'ふい字'"
       transform="matrix(2.7147402,0,0,2.7147402,-406.80232,-452.39975)"><flowRegion
         id="flowRegion2987-3"><rect
           id="rect2989-6"
           width="384"
           height="471"
           x="158"
           y="249"
           style="fill:#6f2530;fill-opacity:1" /></flowRegion><flowPara
         id="flowPara2991-2">科</flowPara></flowRoot>    <flowRoot
       xml:space="preserve"
       id="flowRoot2985-9"
       style="font-size:144px;font-style:normal;font-variant:normal;font-weight:normal;font-stretch:normal;text-align:start;line-height:125%;letter-spacing:0px;word-spacing:0px;writing-mode:lr-tb;text-anchor:start;fill:#6f2530;fill-opacity:1;stroke:none;font-family:'ふい字';-inkscape-font-specification:'ふい字'"
       transform="matrix(2.7147402,0,0,2.7147402,-437.80232,-105.39975)"><flowRegion
         id="flowRegion2987-2"><rect
           id="rect2989-1"
           width="384"
           height="471"
           x="158"
           y="249"
           style="fill:#6f2530;fill-opacity:1" /></flowRegion><flowPara
         id="flowPara2991-7">学</flowPara></flowRoot>  </g>
</svg>
