<?xml version="1.0" encoding="UTF-8" standalone="no"?>
<!-- Created with Inkscape (http://www.inkscape.org/) -->

<svg
   xmlns:dc="http://purl.org/dc/elements/1.1/"
   xmlns:cc="http://creativecommons.org/ns#"
   xmlns:rdf="http://www.w3.org/1999/02/22-rdf-syntax-ns#"
   xmlns:svg="http://www.w3.org/2000/svg"
   xmlns="http://www.w3.org/2000/svg"
   xmlns:sodipodi="http://sodipodi.sourceforge.net/DTD/sodipodi-0.dtd"
   xmlns:inkscape="http://www.inkscape.org/namespaces/inkscape"
   version="1.1"
   width="350"
   height="60"
   id="svg2"
   inkscape:version="0.48.4 r9939"
   sodipodi:docname="kuroneko.crossing.svg">
  <sodipodi:namedview
     pagecolor="#ffffff"
     bordercolor="#666666"
     borderopacity="1"
     objecttolerance="10"
     gridtolerance="10"
     guidetolerance="10"
     inkscape:pageopacity="0"
     inkscape:pageshadow="2"
     inkscape:window-width="1920"
     inkscape:window-height="1148"
     id="namedview8"
     showgrid="false"
     inkscape:zoom="1"
     inkscape:cx="113.62528"
     inkscape:cy="31.860872"
     inkscape:window-x="0"
     inkscape:window-y="0"
     inkscape:window-maximized="1"
     inkscape:current-layer="svg2" />
  <defs
     id="defs4" />
  <metadata
     id="metadata7">
    <rdf:RDF>
      <cc:Work
         rdf:about="">
        <dc:format>image/svg+xml</dc:format>
        <dc:type
           rdf:resource="http://purl.org/dc/dcmitype/StillImage" />
        <dc:title></dc:title>
      </cc:Work>
    </rdf:RDF>
  </metadata>
  <g
     style="font-size:64px;font-style:normal;font-variant:normal;font-weight:normal;font-stretch:normal;text-align:start;line-height:125%;letter-spacing:0px;word-spacing:0px;writing-mode:lr-tb;text-anchor:start;fill:#333333;fill-opacity:1;stroke:none;font-family:Ubuntu;-inkscape-font-specification:Ubuntu"
     id="text3807"
     transform="translate(0,5.7594013)" />
  <g
     transform="translate(-14.512625,3.4435928)"
     style="font-size:64px;font-style:normal;font-variant:normal;font-weight:normal;font-stretch:normal;text-align:start;line-height:125%;letter-spacing:0px;word-spacing:0px;writing-mode:lr-tb;text-anchor:start;fill:#6f2530;fill-opacity:1;stroke:none;font-family:Ubuntu;-inkscape-font-specification:Ubuntu"
     id="flowRoot3935">
    <path
       d="m 24.864,26.940407 c 0.959986,0.736013 1.967985,1.648012 3.024,2.736 1.087983,1.08801 2.143982,2.272009 3.168,3.552 1.05598,1.248007 2.047979,2.528005 2.976,3.84 0.927977,1.280003 1.711976,2.480001 2.352,3.6 l -5.232,0 c -0.672018,-1.119999 -1.456018,-2.255997 -2.352,-3.408 -0.864016,-1.183995 -1.776015,-2.303994 -2.736,-3.36 -0.960013,-1.087992 -1.936012,-2.079991 -2.928,-2.976 -0.99201,-0.895989 -1.936009,-1.647988 -2.832,-2.256 l 0,12 -4.464,0 0,-36.4799997 4.464,-0.768 0,22.7519997 c 0.767991,-0.767984 1.61599,-1.615984 2.544,-2.544 0.927988,-0.927982 1.839987,-1.871981 2.736,-2.832 0.895986,-0.959979 1.743985,-1.871978 2.544,-2.736 0.799983,-0.895976 1.487982,-1.679975 2.064,-2.352 l 5.232,0 c -0.736023,0.800024 -1.536022,1.680024 -2.4,2.64 -0.86402,0.960022 -1.760019,1.936021 -2.688,2.928 -0.928017,0.960019 -1.872016,1.936018 -2.832,2.928 -0.928015,0.960016 -1.808014,1.872015 -2.64,2.736"
       style="letter-spacing:-3.50000000000000000px;fill:#6f2530;fill-opacity:1"
       id="path4108"
       inkscape:connector-curvature="0" />
    <path
       d="m 57.24325,39.948407 c -1.024023,0.256001 -2.384021,0.528001 -4.08,0.816 -1.664018,0.288 -3.600016,0.432 -5.808,0.432 -1.920012,0 -3.53601,-0.272 -4.848,-0.816 -1.312008,-0.575999 -2.368007,-1.375998 -3.168,-2.4 -0.800005,-1.023996 -1.376004,-2.223995 -1.728,-3.6 -0.352004,-1.407992 -0.528004,-2.95999 -0.528,-4.656 l 0,-14.016 4.464,0 0,13.056 c -8e-6,3.040009 0.479992,5.216007 1.44,6.528 0.95999,1.312004 2.575988,1.968004 4.848,1.968 0.479985,4e-6 0.975985,-0.016 1.488,-0.048 0.511984,-0.032 0.991983,-0.064 1.44,-0.096 0.447982,-0.064 0.847982,-0.111996 1.2,-0.144 0.383981,-0.064 0.655981,-0.127996 0.816,-0.192 l 0,-21.072 4.464,0 0,24.24"
       style="letter-spacing:-3.50000000000000000px;fill:#6f2530;fill-opacity:1"
       id="path4110"
       inkscape:connector-curvature="0" />
    <path
       d="m 70.64975,15.180407 c 0.383987,2.6e-5 0.815986,0.03203 1.296,0.096 0.511985,0.03203 1.007985,0.09603 1.488,0.192 0.479984,0.06403 0.911983,0.144025 1.296,0.24 0.415982,0.06403 0.719982,0.128025 0.912,0.192 l -0.768,3.888 c -0.352017,-0.127979 -0.944016,-0.271979 -1.776,-0.432 -0.800015,-0.191978 -1.840014,-0.287978 -3.12,-0.288 -0.832012,2.2e-5 -1.664011,0.09602 -2.496,0.288 -0.800009,0.160021 -1.328009,0.272021 -1.584,0.336 l 0,20.976 -4.464,0 0,-23.904 c 1.055995,-0.383975 2.367994,-0.735975 3.936,-1.056 1.567991,-0.351974 3.327989,-0.527974 5.28,-0.528"
       style="letter-spacing:-3.50000000000000000px;fill:#6f2530;fill-opacity:1"
       id="path4112"
       inkscape:connector-curvature="0" />
    <path
       d="m 98.52825,28.188407 c -2.6e-5,1.984011 -0.288026,3.776009 -0.864,5.376 -0.576024,1.600006 -1.392024,2.976004 -2.448,4.128 -1.024022,1.152002 -2.25602,2.048001 -3.696,2.688 -1.440017,0.608 -3.008016,0.912 -4.704,0.912 -1.696012,0 -3.264011,-0.304 -4.704,-0.912 -1.440008,-0.639999 -2.688007,-1.535998 -3.744,-2.688 -1.024005,-1.151996 -1.824004,-2.527994 -2.4,-4.128 -0.576003,-1.599991 -0.864002,-3.391989 -0.864,-5.376 -2e-6,-1.951985 0.287997,-3.727983 0.864,-5.328 0.575996,-1.63198 1.375995,-3.023979 2.4,-4.176 1.055993,-1.151977 2.303992,-2.031976 3.744,-2.64 1.439989,-0.639974 3.007988,-0.959974 4.704,-0.96 1.695984,2.6e-5 3.263983,0.320026 4.704,0.96 1.43998,0.608024 2.671978,1.488023 3.696,2.64 1.055976,1.152021 1.871976,2.54402 2.448,4.176 0.575974,1.600017 0.863974,3.376015 0.864,5.328 m -4.656,0 c -2.1e-5,-2.815984 -0.640021,-5.039982 -1.92,-6.672 -1.248018,-1.663979 -2.960016,-2.495978 -5.136,-2.496 -2.176012,2.2e-5 -3.90401,0.832021 -5.184,2.496 -1.248008,1.632018 -1.872007,3.856016 -1.872,6.672 -7e-6,2.81601 0.623992,5.056008 1.872,6.72 1.27999,1.632004 3.007988,2.448004 5.184,2.448 2.175984,4e-6 3.887982,-0.815996 5.136,-2.448 1.279979,-1.663992 1.919979,-3.90399 1.92,-6.72"
       style="letter-spacing:-3.50000000000000000px;fill:#6f2530;fill-opacity:1"
       id="path4114"
       inkscape:connector-curvature="0" />
    <path
       d="m 101.30875,16.428407 c 1.024,-0.255975 2.38399,-0.527975 4.08,-0.816 1.69599,-0.287974 3.64799,-0.431974 5.856,-0.432 1.98398,2.6e-5 3.63198,0.288026 4.944,0.864 1.31198,0.544024 2.35198,1.328024 3.12,2.352 0.79998,0.992022 1.35998,2.19202 1.68,3.6 0.31998,1.408018 0.47998,2.960016 0.48,4.656 l 0,14.016 -4.464,0 0,-13.056 c -2e-5,-1.535985 -0.11202,-2.847984 -0.336,-3.936 -0.19202,-1.087982 -0.52802,-1.967981 -1.008,-2.64 -0.48002,-0.671979 -1.12002,-1.151979 -1.92,-1.44 -0.80002,-0.319978 -1.79201,-0.479978 -2.976,-0.48 -0.48001,2.2e-5 -0.97601,0.01602 -1.488,0.048 -0.51201,0.03202 -1.00801,0.08002 -1.488,0.144 -0.44801,0.03202 -0.86401,0.08002 -1.248,0.144 -0.35201,0.06402 -0.60801,0.112021 -0.768,0.144 l 0,21.072 -4.464,0 0,-24.24"
       style="letter-spacing:-3.50000000000000000px;fill:#6f2530;fill-opacity:1"
       id="path4116"
       inkscape:connector-curvature="0" />
    <path
       d="m 123.97925,28.236407 c 0,-2.207985 0.32,-4.127983 0.96,-5.76 0.64,-1.66398 1.488,-3.039978 2.544,-4.128 1.05599,-1.087976 2.27199,-1.903975 3.648,-2.448 1.37599,-0.543974 2.78399,-0.815974 4.224,-0.816 3.35998,2.6e-5 5.93598,1.056025 7.728,3.168 1.79198,2.080021 2.68798,5.264017 2.688,9.552 -2e-5,0.192013 -2e-5,0.448013 0,0.768 -2e-5,0.288012 -0.016,0.560012 -0.048,0.816 l -17.088,0 c 0.19199,2.592009 0.94399,4.560007 2.256,5.904 1.31199,1.344004 3.35999,2.016004 6.144,2.016 1.56798,4e-6 2.87998,-0.127996 3.936,-0.384 1.08798,-0.287996 1.90398,-0.559995 2.448,-0.816 l 0.624,3.744 c -0.54402,0.288001 -1.50402,0.592001 -2.88,0.912 -1.34402,0.32 -2.88002,0.48 -4.608,0.48 -2.17601,0 -4.06401,-0.32 -5.664,-0.96 -1.56801,-0.671999 -2.86401,-1.583998 -3.888,-2.736 -1.024,-1.151995 -1.792,-2.511994 -2.304,-4.08 -0.48,-1.599991 -0.72,-3.343989 -0.72,-5.232 m 17.136,-2.448 c 0.032,-2.015983 -0.48002,-3.663981 -1.536,-4.944 -1.02402,-1.311979 -2.44802,-1.967978 -4.272,-1.968 -1.02401,2.2e-5 -1.93601,0.208022 -2.736,0.624 -0.76801,0.384021 -1.42401,0.896021 -1.968,1.536 -0.54401,0.640019 -0.97601,1.376019 -1.296,2.208 -0.28801,0.832017 -0.48001,1.680016 -0.576,2.544 l 12.384,0"
       style="letter-spacing:-3.50000000000000000px;fill:#6f2530;fill-opacity:1"
       id="path4118"
       inkscape:connector-curvature="0" />
    <path
       d="m 157.70775,26.940407 c 0.95999,0.736013 1.96799,1.648012 3.024,2.736 1.08798,1.08801 2.14398,2.272009 3.168,3.552 1.05598,1.248007 2.04798,2.528005 2.976,3.84 0.92798,1.280003 1.71198,2.480001 2.352,3.6 l -5.232,0 c -0.67202,-1.119999 -1.45602,-2.255997 -2.352,-3.408 -0.86402,-1.183995 -1.77602,-2.303994 -2.736,-3.36 -0.96001,-1.087992 -1.93601,-2.079991 -2.928,-2.976 -0.99201,-0.895989 -1.93601,-1.647988 -2.832,-2.256 l 0,12 -4.464,0 0,-36.4799997 4.464,-0.768 0,22.7519997 c 0.76799,-0.767984 1.61599,-1.615984 2.544,-2.544 0.92799,-0.927982 1.83999,-1.871981 2.736,-2.832 0.89599,-0.959979 1.74398,-1.871978 2.544,-2.736 0.79998,-0.895976 1.48798,-1.679975 2.064,-2.352 l 5.232,0 c -0.73602,0.800024 -1.53602,1.680024 -2.4,2.64 -0.86402,0.960022 -1.76002,1.936021 -2.688,2.928 -0.92802,0.960019 -1.87202,1.936018 -2.832,2.928 -0.92801,0.960016 -1.80801,1.872015 -2.64,2.736"
       style="letter-spacing:-3.50000000000000000px;fill:#6f2530;fill-opacity:1"
       id="path4120"
       inkscape:connector-curvature="0" />
    <path
       d="m 190.84075,28.188407 c -3e-5,1.984011 -0.28803,3.776009 -0.864,5.376 -0.57602,1.600006 -1.39202,2.976004 -2.448,4.128 -1.02402,1.152002 -2.25602,2.048001 -3.696,2.688 -1.44002,0.608 -3.00802,0.912 -4.704,0.912 -1.69601,0 -3.26401,-0.304 -4.704,-0.912 -1.44001,-0.639999 -2.68801,-1.535998 -3.744,-2.688 -1.024,-1.151996 -1.824,-2.527994 -2.4,-4.128 -0.576,-1.599991 -0.864,-3.391989 -0.864,-5.376 0,-1.951985 0.288,-3.727983 0.864,-5.328 0.576,-1.63198 1.376,-3.023979 2.4,-4.176 1.05599,-1.151977 2.30399,-2.031976 3.744,-2.64 1.43999,-0.639974 3.00799,-0.959974 4.704,-0.96 1.69598,2.6e-5 3.26398,0.320026 4.704,0.96 1.43998,0.608024 2.67198,1.488023 3.696,2.64 1.05598,1.152021 1.87198,2.54402 2.448,4.176 0.57597,1.600017 0.86397,3.376015 0.864,5.328 m -4.656,0 c -2e-5,-2.815984 -0.64002,-5.039982 -1.92,-6.672 -1.24802,-1.663979 -2.96002,-2.495978 -5.136,-2.496 -2.17601,2.2e-5 -3.90401,0.832021 -5.184,2.496 -1.24801,1.632018 -1.87201,3.856016 -1.872,6.672 -1e-5,2.81601 0.62399,5.056008 1.872,6.72 1.27999,1.632004 3.00799,2.448004 5.184,2.448 2.17598,4e-6 3.88798,-0.815996 5.136,-2.448 1.27998,-1.663992 1.91998,-3.90399 1.92,-6.72"
       style="letter-spacing:-3.50000000000000000px;fill:#6f2530;fill-opacity:1"
       id="path4122"
       inkscape:connector-curvature="0" />
    <path
       d="m 198.90125,38.076407 c -1e-5,0.864002 -0.28801,1.616001 -0.864,2.256 -0.57601,0.64 -1.36001,0.96 -2.352,0.96 -0.992,0 -1.776,-0.32 -2.352,-0.96 -0.576,-0.639999 -0.864,-1.391998 -0.864,-2.256 0,-0.863996 0.288,-1.615995 0.864,-2.256 0.576,-0.639994 1.36,-0.959994 2.352,-0.96 0.99199,6e-6 1.77599,0.320006 2.352,0.96 0.57599,0.640005 0.86399,1.392004 0.864,2.256"
       style="font-size:48px;fill:#6f2530;fill-opacity:1"
       id="path4124"
       inkscape:connector-curvature="0" />
    <path
       d="m 216.28175,41.244407 c -2.01601,0 -3.79201,-0.32 -5.328,-0.96 -1.50401,-0.639999 -2.78401,-1.535998 -3.84,-2.688 -1.024,-1.151995 -1.792,-2.511994 -2.304,-4.08 -0.512,-1.599991 -0.768,-3.359989 -0.768,-5.28 0,-1.919985 0.272,-3.679984 0.816,-5.28 0.576,-1.59998 1.376,-2.975979 2.4,-4.128 1.02399,-1.183977 2.27199,-2.095976 3.744,-2.736 1.50399,-0.671974 3.16799,-1.007974 4.992,-1.008 1.11998,2.6e-5 2.23998,0.09603 3.36,0.288 1.11998,0.192025 2.19198,0.496025 3.216,0.912 l -1.008,3.792 c -0.67202,-0.319979 -1.45602,-0.575979 -2.352,-0.768 -0.86402,-0.191978 -1.79202,-0.287978 -2.784,-0.288 -2.49601,2.2e-5 -4.41601,0.784021 -5.76,2.352 -1.31201,1.568018 -1.96801,3.856016 -1.968,6.864 -1e-5,1.344011 0.14399,2.57601 0.432,3.696 0.31999,1.120008 0.79999,2.080007 1.44,2.88 0.67199,0.800005 1.51999,1.424005 2.544,1.872 1.02399,0.416004 2.27199,0.624004 3.744,0.624 1.18398,4e-6 2.25598,-0.111996 3.216,-0.336 0.95998,-0.223996 1.71198,-0.463996 2.256,-0.72 l 0.624,3.744 c -0.25602,0.160001 -0.62402,0.320001 -1.104,0.48 -0.48002,0.128 -1.02402,0.24 -1.632,0.336 -0.60802,0.128 -1.26402,0.224 -1.968,0.288 -0.67202,0.096 -1.32802,0.144 -1.968,0.144"
       style="letter-spacing:-2px;fill:#6f2530;fill-opacity:1"
       id="path4126"
       inkscape:connector-curvature="0" />
    <path
       d="m 234.96225,15.180407 c 0.38399,2.6e-5 0.81599,0.03203 1.296,0.096 0.51199,0.03203 1.00798,0.09603 1.488,0.192 0.47998,0.06403 0.91198,0.144025 1.296,0.24 0.41598,0.06403 0.71998,0.128025 0.912,0.192 l -0.768,3.888 c -0.35202,-0.127979 -0.94402,-0.271979 -1.776,-0.432 -0.80001,-0.191978 -1.84001,-0.287978 -3.12,-0.288 -0.83201,2.2e-5 -1.66401,0.09602 -2.496,0.288 -0.80001,0.160021 -1.32801,0.272021 -1.584,0.336 l 0,20.976 -4.464,0 0,-23.904 c 1.056,-0.383975 2.36799,-0.735975 3.936,-1.056 1.56799,-0.351974 3.32799,-0.527974 5.28,-0.528"
       style="letter-spacing:-2px;fill:#6f2530;fill-opacity:1"
       id="path4128"
       inkscape:connector-curvature="0" />
    <path
       d="m 264.34075,28.188407 c -3e-5,1.984011 -0.28803,3.776009 -0.864,5.376 -0.57602,1.600006 -1.39202,2.976004 -2.448,4.128 -1.02402,1.152002 -2.25602,2.048001 -3.696,2.688 -1.44002,0.608 -3.00802,0.912 -4.704,0.912 -1.69601,0 -3.26401,-0.304 -4.704,-0.912 -1.44001,-0.639999 -2.68801,-1.535998 -3.744,-2.688 -1.024,-1.151996 -1.824,-2.527994 -2.4,-4.128 -0.576,-1.599991 -0.864,-3.391989 -0.864,-5.376 0,-1.951985 0.288,-3.727983 0.864,-5.328 0.576,-1.63198 1.376,-3.023979 2.4,-4.176 1.05599,-1.151977 2.30399,-2.031976 3.744,-2.64 1.43999,-0.639974 3.00799,-0.959974 4.704,-0.96 1.69598,2.6e-5 3.26398,0.320026 4.704,0.96 1.43998,0.608024 2.67198,1.488023 3.696,2.64 1.05598,1.152021 1.87198,2.54402 2.448,4.176 0.57597,1.600017 0.86397,3.376015 0.864,5.328 m -4.656,0 c -2e-5,-2.815984 -0.64002,-5.039982 -1.92,-6.672 -1.24802,-1.663979 -2.96002,-2.495978 -5.136,-2.496 -2.17601,2.2e-5 -3.90401,0.832021 -5.184,2.496 -1.24801,1.632018 -1.87201,3.856016 -1.872,6.672 -1e-5,2.81601 0.62399,5.056008 1.872,6.72 1.27999,1.632004 3.00799,2.448004 5.184,2.448 2.17598,4e-6 3.88798,-0.815996 5.136,-2.448 1.27998,-1.663992 1.91998,-3.90399 1.92,-6.72"
       style="letter-spacing:-2px;fill:#6f2530;fill-opacity:1"
       id="path4130"
       inkscape:connector-curvature="0" />
    <path
       d="m 274.42925,37.452407 c 1.82399,4e-6 3.16799,-0.239996 4.032,-0.72 0.89599,-0.479995 1.34398,-1.247995 1.344,-2.304 -2e-5,-1.087992 -0.43201,-1.951991 -1.296,-2.592 -0.86401,-0.63999 -2.28801,-1.359989 -4.272,-2.16 -0.96001,-0.383988 -1.88801,-0.767988 -2.784,-1.152 -0.86401,-0.415987 -1.61601,-0.895987 -2.256,-1.44 -0.64,-0.543986 -1.152,-1.199985 -1.536,-1.968 -0.384,-0.767983 -0.576,-1.711982 -0.576,-2.832 0,-2.207979 0.816,-3.951977 2.448,-5.232 1.63199,-1.311975 3.85599,-1.967974 6.672,-1.968 0.70399,2.6e-5 1.40799,0.04803 2.112,0.144 0.70399,0.06403 1.35999,0.160026 1.968,0.288 0.60798,0.09603 1.13598,0.208025 1.584,0.336 0.47998,0.128025 0.84798,0.240025 1.104,0.336 l -0.816,3.84 c -0.48002,-0.255979 -1.23202,-0.511979 -2.256,-0.768 -1.02401,-0.287978 -2.25601,-0.431978 -3.696,-0.432 -1.24801,2.2e-5 -2.33601,0.256022 -3.264,0.768 -0.92801,0.480021 -1.39201,1.24802 -1.392,2.304 -10e-6,0.544019 0.096,1.024018 0.288,1.44 0.22399,0.416017 0.54399,0.800017 0.96,1.152 0.44799,0.320016 0.99199,0.624016 1.632,0.912 0.63999,0.288015 1.40799,0.592015 2.304,0.912 1.18399,0.448014 2.23999,0.896014 3.168,1.344 0.92798,0.416013 1.71198,0.912012 2.352,1.488 0.67198,0.576011 1.18398,1.280011 1.536,2.112 0.35198,0.800009 0.52798,1.792008 0.528,2.976 -2e-5,2.304004 -0.86402,4.048003 -2.592,5.232 -1.69602,1.184 -4.12801,1.776 -7.296,1.776 -2.20801,0 -3.93601,-0.192 -5.184,-0.576 -1.248,-0.351999 -2.096,-0.623999 -2.544,-0.816 l 0.816,-3.84 c 0.512,0.192005 1.328,0.480004 2.448,0.864 1.11999,0.384004 2.60799,0.576004 4.464,0.576"
       style="letter-spacing:-2px;fill:#6f2530;fill-opacity:1"
       id="path4132"
       inkscape:connector-curvature="0" />
    <path
       d="m 293.80425,37.452407 c 1.82399,4e-6 3.16799,-0.239996 4.032,-0.72 0.89599,-0.479995 1.34398,-1.247995 1.344,-2.304 -2e-5,-1.087992 -0.43201,-1.951991 -1.296,-2.592 -0.86401,-0.63999 -2.28801,-1.359989 -4.272,-2.16 -0.96001,-0.383988 -1.88801,-0.767988 -2.784,-1.152 -0.86401,-0.415987 -1.61601,-0.895987 -2.256,-1.44 -0.64,-0.543986 -1.152,-1.199985 -1.536,-1.968 -0.384,-0.767983 -0.576,-1.711982 -0.576,-2.832 0,-2.207979 0.816,-3.951977 2.448,-5.232 1.63199,-1.311975 3.85599,-1.967974 6.672,-1.968 0.70399,2.6e-5 1.40799,0.04803 2.112,0.144 0.70399,0.06403 1.35999,0.160026 1.968,0.288 0.60798,0.09603 1.13598,0.208025 1.584,0.336 0.47998,0.128025 0.84798,0.240025 1.104,0.336 l -0.816,3.84 c -0.48002,-0.255979 -1.23202,-0.511979 -2.256,-0.768 -1.02401,-0.287978 -2.25601,-0.431978 -3.696,-0.432 -1.24801,2.2e-5 -2.33601,0.256022 -3.264,0.768 -0.92801,0.480021 -1.39201,1.24802 -1.392,2.304 -10e-6,0.544019 0.096,1.024018 0.288,1.44 0.22399,0.416017 0.54399,0.800017 0.96,1.152 0.44799,0.320016 0.99199,0.624016 1.632,0.912 0.63999,0.288015 1.40799,0.592015 2.304,0.912 1.18399,0.448014 2.23999,0.896014 3.168,1.344 0.92798,0.416013 1.71198,0.912012 2.352,1.488 0.67198,0.576011 1.18398,1.280011 1.536,2.112 0.35198,0.800009 0.52798,1.792008 0.528,2.976 -2e-5,2.304004 -0.86402,4.048003 -2.592,5.232 -1.69602,1.184 -4.12801,1.776 -7.296,1.776 -2.20801,0 -3.93601,-0.192 -5.184,-0.576 -1.248,-0.351999 -2.096,-0.623999 -2.544,-0.816 l 0.816,-3.84 c 0.512,0.192005 1.328,0.480004 2.448,0.864 1.11999,0.384004 2.60799,0.576004 4.464,0.576"
       style="letter-spacing:-2px;fill:#6f2530;fill-opacity:1"
       id="path4134"
       inkscape:connector-curvature="0" />
    <path
       d="m 311.83525,40.668407 -4.464,0 0,-24.96 4.464,0 0,24.96 m -2.256,-29.472 c -0.80001,3e-5 -1.488,-0.25597 -2.064,-0.768 -0.544,-0.5439689 -0.816,-1.2639682 -0.816,-2.1599997 0,-0.8959667 0.272,-1.599966 0.816,-2.112 0.576,-0.5439649 1.26399,-0.8159647 2.064,-0.816 0.79999,3.53e-5 1.47199,0.2720351 2.016,0.816 0.57599,0.512034 0.86399,1.2160333 0.864,2.112 -10e-6,0.8960315 -0.28801,1.6160308 -0.864,2.1599997 -0.54401,0.51203 -1.21601,0.76803 -2.016,0.768"
       style="letter-spacing:-2px;fill:#6f2530;fill-opacity:1"
       id="path4136"
       inkscape:connector-curvature="0" />
    <path
       d="m 317.55875,16.428407 c 1.024,-0.255975 2.38399,-0.527975 4.08,-0.816 1.69599,-0.287974 3.64799,-0.431974 5.856,-0.432 1.98398,2.6e-5 3.63198,0.288026 4.944,0.864 1.31198,0.544024 2.35198,1.328024 3.12,2.352 0.79998,0.992022 1.35998,2.19202 1.68,3.6 0.31998,1.408018 0.47998,2.960016 0.48,4.656 l 0,14.016 -4.464,0 0,-13.056 c -2e-5,-1.535985 -0.11202,-2.847984 -0.336,-3.936 -0.19202,-1.087982 -0.52802,-1.967981 -1.008,-2.64 -0.48002,-0.671979 -1.12002,-1.151979 -1.92,-1.44 -0.80002,-0.319978 -1.79201,-0.479978 -2.976,-0.48 -0.48001,2.2e-5 -0.97601,0.01602 -1.488,0.048 -0.51201,0.03202 -1.00801,0.08002 -1.488,0.144 -0.44801,0.03202 -0.86401,0.08002 -1.248,0.144 -0.35201,0.06402 -0.60801,0.112021 -0.768,0.144 l 0,21.072 -4.464,0 0,-24.24"
       style="letter-spacing:-2px;fill:#6f2530;fill-opacity:1"
       id="path4138"
       inkscape:connector-curvature="0" />
    <path
       d="m 358.76925,38.172407 c -0.38402,0.256003 -1.13602,0.592002 -2.256,1.008 -1.08802,0.384001 -2.36801,0.576001 -3.84,0.576 -1.50401,10e-7 -2.92801,-0.239999 -4.272,-0.72 -1.31201,-0.479998 -2.46401,-1.215997 -3.456,-2.208 -0.992,-1.023995 -1.776,-2.287994 -2.352,-3.792 -0.576,-1.503991 -0.864,-3.295989 -0.864,-5.376 0,-1.823985 0.272,-3.487983 0.816,-4.992 0.544,-1.53598 1.328,-2.847979 2.352,-3.936 1.05599,-1.119977 2.33599,-1.983976 3.84,-2.592 1.50399,-0.639975 3.19999,-0.959974 5.088,-0.96 2.07998,2.6e-5 3.88798,0.160026 5.424,0.48 1.56798,0.288025 2.87998,0.560025 3.936,0.816 l 0,22.272 c -2e-5,3.839998 -0.99202,6.623996 -2.976,8.352 -1.98402,1.727992 -4.99202,2.591991 -9.024,2.592 -1.56801,-9e-6 -3.05601,-0.128009 -4.464,-0.384 -1.37601,-0.256008 -2.576,-0.560008 -3.6,-0.912 l 0.816,-3.888 c 0.89599,0.351996 1.98399,0.655996 3.264,0.912 1.31199,0.287995 2.67199,0.431995 4.08,0.432 2.65599,-5e-6 4.55998,-0.528004 5.712,-1.584 1.18398,-1.056002 1.77598,-2.736001 1.776,-5.04 l 0,-1.056 m -0.048,-18.528 c -0.44802,-0.127979 -1.05602,-0.239978 -1.824,-0.336 -0.73602,-0.127978 -1.74402,-0.191978 -3.024,-0.192 -2.40001,2.2e-5 -4.25601,0.784021 -5.568,2.352 -1.28001,1.568018 -1.92001,3.648016 -1.92,6.24 -10e-6,1.440012 0.17599,2.672011 0.528,3.696 0.38399,1.024009 0.87999,1.872008 1.488,2.544 0.63999,0.672006 1.35999,1.168006 2.16,1.488 0.83199,0.320005 1.67999,0.480005 2.544,0.48 1.18398,5e-6 2.27198,-0.159995 3.264,-0.48 0.99198,-0.351994 1.77598,-0.751994 2.352,-1.2 l 0,-14.592"
       style="letter-spacing:-2px;fill:#6f2530;fill-opacity:1"
       id="path4140"
       inkscape:connector-curvature="0" />
  </g>
  <g
     transform="translate(0,19.759401)"
     style="font-size:64px;font-style:normal;font-variant:normal;font-weight:normal;font-stretch:normal;text-align:start;line-height:125%;letter-spacing:0px;word-spacing:0px;writing-mode:lr-tb;text-anchor:start;fill:#333333;fill-opacity:1;stroke:none;font-family:Ubuntu;-inkscape-font-specification:Ubuntu"
     id="flowRoot4055" />
  <g
     style="font-size:64px;font-style:normal;font-variant:normal;font-weight:normal;font-stretch:normal;text-align:start;line-height:125%;letter-spacing:0px;word-spacing:0px;writing-mode:lr-tb;text-anchor:start;fill:#333333;fill-opacity:1;stroke:none;font-family:Ubuntu;-inkscape-font-specification:Ubuntu"
     id="text4063"
     transform="translate(0,5.7594013)" />
  <g
     style="font-size:64px;font-style:normal;font-variant:normal;font-weight:normal;font-stretch:normal;text-align:start;line-height:125%;letter-spacing:0px;word-spacing:0px;writing-mode:lr-tb;text-anchor:start;fill:#333333;fill-opacity:1;stroke:none;font-family:Ubuntu;-inkscape-font-specification:Ubuntu"
     id="text4067"
     transform="translate(0,5.7594013)" />
</svg>
