<?xml version="1.0" encoding="UTF-8" standalone="no"?>
<!-- Created with Inkscape (http://www.inkscape.org/) -->

<svg
   xmlns:dc="http://purl.org/dc/elements/1.1/"
   xmlns:cc="http://creativecommons.org/ns#"
   xmlns:rdf="http://www.w3.org/1999/02/22-rdf-syntax-ns#"
   xmlns:svg="http://www.w3.org/2000/svg"
   xmlns="http://www.w3.org/2000/svg"
   version="1.1"
   width="330"
   height="60"
   id="svg2">
  <defs
     id="defs4" />
  <metadata
     id="metadata7">
    <rdf:RDF>
      <cc:Work
         rdf:about="">
        <dc:format>image/svg+xml</dc:format>
        <dc:type
           rdf:resource="http://purl.org/dc/dcmitype/StillImage" />
        <dc:title></dc:title>
      </cc:Work>
    </rdf:RDF>
  </metadata>
  <g
     transform="translate(0,5.7594013)"
     id="text3807"
     style="font-size:64px;font-style:normal;font-variant:normal;font-weight:normal;font-stretch:normal;text-align:start;line-height:125%;letter-spacing:0px;word-spacing:0px;writing-mode:lr-tb;text-anchor:start;fill:#333333;fill-opacity:1;stroke:none;font-family:Ubuntu;-inkscape-font-specification:Ubuntu" />
  <g
     transform="translate(0,19.759401)"
     id="flowRoot4055"
     style="font-size:64px;font-style:normal;font-variant:normal;font-weight:normal;font-stretch:normal;text-align:start;line-height:125%;letter-spacing:0px;word-spacing:0px;writing-mode:lr-tb;text-anchor:start;fill:#333333;fill-opacity:1;stroke:none;font-family:Ubuntu;-inkscape-font-specification:Ubuntu" />
  <g
     transform="translate(0,5.7594013)"
     id="text4063"
     style="font-size:64px;font-style:normal;font-variant:normal;font-weight:normal;font-stretch:normal;text-align:start;line-height:125%;letter-spacing:0px;word-spacing:0px;writing-mode:lr-tb;text-anchor:start;fill:#333333;fill-opacity:1;stroke:none;font-family:Ubuntu;-inkscape-font-specification:Ubuntu" />
  <g
     transform="translate(0,5.7594013)"
     id="text4067"
     style="font-size:64px;font-style:normal;font-variant:normal;font-weight:normal;font-stretch:normal;text-align:start;line-height:125%;letter-spacing:0px;word-spacing:0px;writing-mode:lr-tb;text-anchor:start;fill:#333333;fill-opacity:1;stroke:none;font-family:Ubuntu;-inkscape-font-specification:Ubuntu" />
  <g
     id="text3003"
     style="font-size:48px;font-style:normal;font-variant:normal;font-weight:normal;font-stretch:normal;text-align:start;line-height:125%;letter-spacing:0px;word-spacing:0px;writing-mode:lr-tb;text-anchor:start;fill:#6f2530;fill-opacity:1;stroke:none;font-family:Ubuntu;-inkscape-font-specification:Ubuntu">
    <path
       d="m 10.745875,34.584 c 0.959986,0.736013 1.967985,1.648012 3.024,2.736 1.087983,1.08801 2.143982,2.272009 3.168,3.552 1.05598,1.248006 2.047979,2.528005 2.976,3.84 0.927977,1.280003 1.711976,2.480001 2.352,3.6 l -5.232,0 c -0.672018,-1.119999 -1.456018,-2.255997 -2.352,-3.408 -0.864016,-1.183995 -1.776015,-2.303994 -2.736,-3.36 -0.960013,-1.087992 -1.936012,-2.079991 -2.928,-2.976 -0.9920101,-0.895989 -1.9360092,-1.647988 -2.832,-2.256 l 0,12 -4.464,0 0,-36.48 4.464,-0.768 0,22.752 c 0.767991,-0.767984 1.6159901,-1.615984 2.544,-2.544 0.9279883,-0.927982 1.839987,-1.871981 2.736,-2.832 0.895986,-0.959979 1.743985,-1.871978 2.544,-2.736 0.799983,-0.895976 1.487982,-1.679975 2.064,-2.352 l 5.232,0 c -0.736023,0.800024 -1.536022,1.680024 -2.4,2.64 -0.86402,0.960022 -1.760019,1.936021 -2.688,2.928 -0.928017,0.960019 -1.872016,1.936018 -2.832,2.928 -0.928015,0.960016 -1.808014,1.872015 -2.64,2.736"
       id="path3050"
       style="letter-spacing:-4px" />
    <path
       d="m 42.625125,47.592 c -1.024023,0.256001 -2.384021,0.528 -4.08,0.816 -1.664018,0.288 -3.600016,0.432 -5.808,0.432 -1.920012,0 -3.53601,-0.272 -4.848,-0.816 -1.312008,-0.575999 -2.368007,-1.375998 -3.168,-2.4 -0.800005,-1.023996 -1.376004,-2.223995 -1.728,-3.6 -0.352004,-1.407992 -0.528004,-2.95999 -0.528,-4.656 l 0,-14.016 4.464,0 0,13.056 c -8e-6,3.040009 0.479992,5.216007 1.44,6.528 0.95999,1.312004 2.575988,1.968004 4.848,1.968 0.479985,4e-6 0.975985,-0.016 1.488,-0.048 0.511984,-0.032 0.991983,-0.064 1.44,-0.096 0.447982,-0.064 0.847982,-0.111996 1.2,-0.144 0.383981,-0.064 0.655981,-0.127996 0.816,-0.192 l 0,-21.072 4.464,0 0,24.24"
       id="path3052"
       style="letter-spacing:-4px" />
    <path
       d="m 55.531625,22.824 c 0.383987,2.6e-5 0.815986,0.03203 1.296,0.096 0.511985,0.03203 1.007985,0.09603 1.488,0.192 0.479984,0.06403 0.911983,0.144025 1.296,0.24 0.415982,0.06403 0.719982,0.128025 0.912,0.192 l -0.768,3.888 c -0.352017,-0.127979 -0.944016,-0.271979 -1.776,-0.432 -0.800015,-0.191978 -1.840014,-0.287978 -3.12,-0.288 -0.832012,2.2e-5 -1.664011,0.09602 -2.496,0.288 -0.800009,0.160021 -1.328009,0.272021 -1.584,0.336 l 0,20.976 -4.464,0 0,-23.904 c 1.055995,-0.383975 2.367994,-0.735975 3.936,-1.056 1.567991,-0.351974 3.327989,-0.527974 5.28,-0.528"
       id="path3054"
       style="letter-spacing:-4px" />
    <path
       d="m 82.910125,35.832 c -2.6e-5,1.984011 -0.288026,3.776009 -0.864,5.376 -0.576024,1.600006 -1.392024,2.976004 -2.448,4.128 -1.024021,1.152002 -2.25602,2.048001 -3.696,2.688 -1.440017,0.608 -3.008016,0.912 -4.704,0.912 -1.696012,0 -3.264011,-0.304 -4.704,-0.912 -1.440008,-0.639999 -2.688007,-1.535998 -3.744,-2.688 -1.024005,-1.151996 -1.824004,-2.527994 -2.4,-4.128 -0.576003,-1.599991 -0.864002,-3.391989 -0.864,-5.376 -2e-6,-1.951985 0.287997,-3.727984 0.864,-5.328 0.575996,-1.63198 1.375995,-3.023979 2.4,-4.176 1.055993,-1.151977 2.303992,-2.031976 3.744,-2.64 1.439989,-0.639974 3.007988,-0.959974 4.704,-0.96 1.695984,2.6e-5 3.263983,0.320026 4.704,0.96 1.43998,0.608024 2.671979,1.488023 3.696,2.64 1.055976,1.152021 1.871976,2.54402 2.448,4.176 0.575974,1.600016 0.863974,3.376015 0.864,5.328 m -4.656,0 c -2.1e-5,-2.815984 -0.640021,-5.039982 -1.92,-6.672 -1.248018,-1.663979 -2.960016,-2.495978 -5.136,-2.496 -2.176012,2.2e-5 -3.90401,0.832021 -5.184,2.496 -1.248008,1.632018 -1.872007,3.856016 -1.872,6.672 -7e-6,2.81601 0.623992,5.056008 1.872,6.72 1.27999,1.632004 3.007988,2.448004 5.184,2.448 2.175984,4e-6 3.887982,-0.815996 5.136,-2.448 1.279979,-1.663992 1.919979,-3.90399 1.92,-6.72"
       id="path3056"
       style="letter-spacing:-4px" />
    <path
       d="m 85.190625,24.072 c 1.023995,-0.255975 2.383994,-0.527975 4.08,-0.816 1.69599,-0.287974 3.647988,-0.431974 5.856,-0.432 1.983984,2.6e-5 3.631983,0.288025 4.944005,0.864 1.31198,0.544024 2.35197,1.328024 3.12,2.352 0.79997,0.992022 1.35997,2.19202 1.68,3.6 0.31997,1.408018 0.47997,2.960016 0.48,4.656 l 0,14.016 -4.464,0 0,-13.056 c -2e-5,-1.535985 -0.11202,-2.847984 -0.336,-3.936 -0.19202,-1.087982 -0.52802,-1.967981 -1.008005,-2.64 -0.480018,-0.671979 -1.120017,-1.151979 -1.92,-1.44 -0.800015,-0.319978 -1.792014,-0.479978 -2.976,-0.48 -0.480013,2.2e-5 -0.976012,0.01602 -1.488,0.048 -0.512011,0.03202 -1.008011,0.08002 -1.488,0.144 -0.44801,0.03202 -0.864009,0.08002 -1.248,0.144 -0.352009,0.06402 -0.608008,0.112021 -0.768,0.144 l 0,21.072 -4.464,0 0,-24.24"
       id="path3058"
       style="letter-spacing:-4px" />
    <path
       d="m 107.36113,35.88 c -1e-5,-2.207985 0.31999,-4.127983 0.96,-5.76 0.63999,-1.66398 1.48799,-3.039978 2.544,-4.128 1.05599,-1.087976 2.27199,-1.903976 3.648,-2.448 1.37598,-0.543974 2.78398,-0.815974 4.224,-0.816 3.35998,2.6e-5 5.93598,1.056025 7.728,3.168 1.79197,2.080021 2.68797,5.264017 2.688,9.552 -3e-5,0.192013 -3e-5,0.448013 0,0.768 -3e-5,0.288012 -0.016,0.560012 -0.048,0.816 l -17.088,0 c 0.19199,2.592009 0.94399,4.560007 2.256,5.904 1.31198,1.344004 3.35998,2.016004 6.144,2.016 1.56798,4e-6 2.87998,-0.127996 3.936,-0.384 1.08797,-0.287996 1.90397,-0.559995 2.448,-0.816 l 0.624,3.744 c -0.54403,0.288001 -1.50403,0.592 -2.88,0.912 -1.34402,0.32 -2.88002,0.48 -4.608,0.48 -2.17602,0 -4.06402,-0.32 -5.664,-0.96 -1.56801,-0.671999 -2.86401,-1.583998 -3.888,-2.736 -1.02401,-1.151995 -1.79201,-2.511994 -2.304,-4.08 -0.48001,-1.599991 -0.72001,-3.343989 -0.72,-5.232 m 17.136,-2.448 c 0.032,-2.015983 -0.48002,-3.663981 -1.536,-4.944 -1.02402,-1.311979 -2.44802,-1.967978 -4.272,-1.968 -1.02402,2.2e-5 -1.93602,0.208022 -2.736,0.624 -0.76802,0.384021 -1.42401,0.896021 -1.968,1.536 -0.54401,0.640019 -0.97601,1.376019 -1.296,2.208 -0.28801,0.832017 -0.48001,1.680016 -0.576,2.544 l 12.384,0"
       id="path3060"
       style="letter-spacing:-4px" />
    <path
       d="m 140.58963,34.584 c 0.95998,0.736013 1.96798,1.648012 3.024,2.736 1.08798,1.08801 2.14398,2.272009 3.168,3.552 1.05597,1.248006 2.04797,2.528005 2.976,3.84 0.92797,1.280003 1.71197,2.480001 2.352,3.6 l -5.232,0 c -0.67202,-1.119999 -1.45602,-2.255997 -2.352,-3.408 -0.86402,-1.183995 -1.77602,-2.303994 -2.736,-3.36 -0.96002,-1.087992 -1.93602,-2.079991 -2.928,-2.976 -0.99202,-0.895989 -1.93601,-1.647988 -2.832,-2.256 l 0,12 -4.464,0 0,-36.48 4.464,-0.768 0,22.752 c 0.76799,-0.767984 1.61599,-1.615984 2.544,-2.544 0.92798,-0.927982 1.83998,-1.871981 2.736,-2.832 0.89598,-0.959979 1.74398,-1.871978 2.544,-2.736 0.79998,-0.895976 1.48798,-1.679975 2.064,-2.352 l 5.232,0 c -0.73603,0.800024 -1.53603,1.680024 -2.4,2.64 -0.86403,0.960022 -1.76002,1.936021 -2.688,2.928 -0.92802,0.960019 -1.87202,1.936018 -2.832,2.928 -0.92802,0.960016 -1.80802,1.872015 -2.64,2.736"
       id="path3062"
       style="letter-spacing:-4px" />
    <path
       d="m 173.22263,35.832 c -3e-5,1.984011 -0.28803,3.776009 -0.864,5.376 -0.57603,1.600006 -1.39203,2.976004 -2.448,4.128 -1.02403,1.152002 -2.25603,2.048001 -3.696,2.688 -1.44002,0.608 -3.00802,0.912 -4.704,0.912 -1.69602,0 -3.26402,-0.304 -4.704,-0.912 -1.44001,-0.639999 -2.68801,-1.535998 -3.744,-2.688 -1.02401,-1.151996 -1.82401,-2.527994 -2.4,-4.128 -0.57601,-1.599991 -0.86401,-3.391989 -0.864,-5.376 -1e-5,-1.951985 0.28799,-3.727984 0.864,-5.328 0.57599,-1.63198 1.37599,-3.023979 2.4,-4.176 1.05599,-1.151977 2.30399,-2.031976 3.744,-2.64 1.43998,-0.639974 3.00798,-0.959974 4.704,-0.96 1.69598,2.6e-5 3.26398,0.320026 4.704,0.96 1.43997,0.608024 2.67197,1.488023 3.696,2.64 1.05597,1.152021 1.87197,2.54402 2.448,4.176 0.57597,1.600016 0.86397,3.376015 0.864,5.328 m -4.656,0 c -3e-5,-2.815984 -0.64003,-5.039982 -1.92,-6.672 -1.24802,-1.663979 -2.96002,-2.495978 -5.136,-2.496 -2.17602,2.2e-5 -3.90402,0.832021 -5.184,2.496 -1.24801,1.632018 -1.87201,3.856016 -1.872,6.672 -1e-5,2.81601 0.62399,5.056008 1.872,6.72 1.27998,1.632004 3.00798,2.448004 5.184,2.448 2.17598,4e-6 3.88798,-0.815996 5.136,-2.448 1.27997,-1.663992 1.91997,-3.90399 1.92,-6.72"
       id="path3064"
       style="letter-spacing:-4px" />
    <path
       d="m 180.78313,45.72 c -1e-5,0.864002 -0.28801,1.616001 -0.864,2.256 -0.57601,0.64 -1.36001,0.96 -2.352,0.96 -0.99201,0 -1.77601,-0.32 -2.352,-0.96 -0.57601,-0.639999 -0.86401,-1.391998 -0.864,-2.256 -1e-5,-0.863996 0.28799,-1.615996 0.864,-2.256 0.57599,-0.639994 1.35999,-0.959994 2.352,-0.96 0.99199,6e-6 1.77599,0.320006 2.352,0.96 0.57599,0.640004 0.86399,1.392004 0.864,2.256"
       id="path3066" />
    <path
       d="m 193.12363,45.096 c 1.82398,3e-6 3.16798,-0.239996 4.032,-0.72 0.89598,-0.479995 1.34398,-1.247995 1.344,-2.304 -2e-5,-1.087992 -0.43202,-1.951992 -1.296,-2.592 -0.86402,-0.63999 -2.28802,-1.35999 -4.272,-2.16 -0.96001,-0.383988 -1.88801,-0.767988 -2.784,-1.152 -0.86401,-0.415987 -1.61601,-0.895987 -2.256,-1.44 -0.64001,-0.543986 -1.15201,-1.199985 -1.536,-1.968 -0.38401,-0.767983 -0.57601,-1.711982 -0.576,-2.832 -1e-5,-2.207979 0.81599,-3.951977 2.448,-5.232 1.63199,-1.311975 3.85599,-1.967974 6.672,-1.968 0.70398,2.6e-5 1.40798,0.04803 2.112,0.144 0.70398,0.06403 1.35998,0.160026 1.968,0.288 0.60798,0.09603 1.13598,0.208025 1.584,0.336 0.47998,0.128025 0.84798,0.240025 1.104,0.336 l -0.816,3.84 c -0.48002,-0.255979 -1.23202,-0.511979 -2.256,-0.768 -1.02402,-0.287978 -2.25602,-0.431978 -3.696,-0.432 -1.24802,2.2e-5 -2.33601,0.256022 -3.264,0.768 -0.92801,0.480021 -1.39201,1.24802 -1.392,2.304 -1e-5,0.544018 0.096,1.024018 0.288,1.44 0.22399,0.416017 0.54399,0.800017 0.96,1.152 0.44799,0.320016 0.99199,0.624016 1.632,0.912 0.63998,0.288015 1.40798,0.592015 2.304,0.912 1.18398,0.448014 2.23998,0.896014 3.168,1.344 0.92798,0.416013 1.71198,0.912012 2.352,1.488 0.67198,0.576011 1.18398,1.280011 1.536,2.112 0.35198,0.800009 0.52798,1.792008 0.528,2.976 -2e-5,2.304004 -0.86402,4.048003 -2.592,5.232 -1.69602,1.184 -4.12802,1.776 -7.296,1.776 -2.20801,0 -3.93601,-0.192 -5.184,-0.576 -1.24801,-0.351999 -2.09601,-0.623999 -2.544,-0.816 l 0.816,-3.84 c 0.51199,0.192005 1.32799,0.480004 2.448,0.864 1.11999,0.384004 2.60799,0.576003 4.464,0.576"
       id="path3068"
       style="letter-spacing:-2px" />
    <path
       d="m 217.53863,48.888 c -2.01602,0 -3.79202,-0.32 -5.328,-0.96 -1.50401,-0.639999 -2.78401,-1.535998 -3.84,-2.688 -1.02401,-1.151996 -1.79201,-2.511994 -2.304,-4.08 -0.51201,-1.599991 -0.76801,-3.359989 -0.768,-5.28 -1e-5,-1.919985 0.27199,-3.679984 0.816,-5.28 0.57599,-1.59998 1.37599,-2.975979 2.4,-4.128 1.02399,-1.183977 2.27199,-2.095976 3.744,-2.736 1.50398,-0.671974 3.16798,-1.007974 4.992,-1.008 1.11998,2.6e-5 2.23998,0.09603 3.36,0.288 1.11998,0.192025 2.19198,0.496025 3.216,0.912 l -1.008,3.792 c -0.67202,-0.319979 -1.45602,-0.575979 -2.352,-0.768 -0.86402,-0.191978 -1.79202,-0.287978 -2.784,-0.288 -2.49602,2.2e-5 -4.41602,0.784021 -5.76,2.352 -1.31201,1.568018 -1.96801,3.856016 -1.968,6.864 -1e-5,1.344011 0.14399,2.57601 0.432,3.696 0.31999,1.120008 0.79999,2.080007 1.44,2.88 0.67199,0.800005 1.51998,1.424005 2.544,1.872 1.02398,0.416004 2.27198,0.624004 3.744,0.624 1.18398,4e-6 2.25598,-0.111996 3.216,-0.336 0.95998,-0.223996 1.71197,-0.463996 2.256,-0.72 l 0.624,3.744 c -0.25603,0.160001 -0.62403,0.320001 -1.104,0.48 -0.48002,0.128 -1.02402,0.24 -1.632,0.336 -0.60802,0.128 -1.26402,0.224 -1.968,0.288 -0.67202,0.096 -1.32802,0.144 -1.968,0.144"
       id="path3070"
       style="letter-spacing:-2px" />
    <path
       d="m 231.46713,48.312 -4.464,0 0,-24.96 4.464,0 0,24.96 m -2.256,-29.472 c -0.80001,3e-5 -1.48801,-0.25597 -2.064,-0.768 -0.54401,-0.543969 -0.81601,-1.263968 -0.816,-2.16 -1e-5,-0.895966 0.27199,-1.599966 0.816,-2.112 0.57599,-0.543965 1.26399,-0.815964 2.064,-0.816 0.79999,3.6e-5 1.47199,0.272035 2.016,0.816 0.57599,0.512034 0.86399,1.216034 0.864,2.112 -1e-5,0.896032 -0.28801,1.616031 -0.864,2.16 -0.54401,0.51203 -1.21601,0.76803 -2.016,0.768"
       id="path3072"
       style="letter-spacing:-2px" />
    <path
       d="m 235.79863,35.88 c -1e-5,-2.207985 0.31999,-4.127983 0.96,-5.76 0.63999,-1.66398 1.48799,-3.039978 2.544,-4.128 1.05599,-1.087976 2.27199,-1.903976 3.648,-2.448 1.37598,-0.543974 2.78398,-0.815974 4.224,-0.816 3.35998,2.6e-5 5.93598,1.056025 7.728,3.168 1.79197,2.080021 2.68797,5.264017 2.688,9.552 -3e-5,0.192013 -3e-5,0.448013 0,0.768 -3e-5,0.288012 -0.016,0.560012 -0.048,0.816 l -17.088,0 c 0.19199,2.592009 0.94399,4.560007 2.256,5.904 1.31198,1.344004 3.35998,2.016004 6.144,2.016 1.56798,4e-6 2.87998,-0.127996 3.936,-0.384 1.08797,-0.287996 1.90397,-0.559995 2.448,-0.816 l 0.624,3.744 c -0.54403,0.288001 -1.50403,0.592 -2.88,0.912 -1.34402,0.32 -2.88002,0.48 -4.608,0.48 -2.17602,0 -4.06402,-0.32 -5.664,-0.96 -1.56801,-0.671999 -2.86401,-1.583998 -3.888,-2.736 -1.02401,-1.151995 -1.79201,-2.511994 -2.304,-4.08 -0.48001,-1.599991 -0.72001,-3.343989 -0.72,-5.232 m 17.136,-2.448 c 0.032,-2.015983 -0.48002,-3.663981 -1.536,-4.944 -1.02402,-1.311979 -2.44802,-1.967978 -4.272,-1.968 -1.02402,2.2e-5 -1.93602,0.208022 -2.736,0.624 -0.76802,0.384021 -1.42401,0.896021 -1.968,1.536 -0.54401,0.640019 -0.97601,1.376019 -1.296,2.208 -0.28801,0.832017 -0.48001,1.680016 -0.576,2.544 l 12.384,0"
       id="path3074"
       style="letter-spacing:-2px" />
    <path
       d="m 262.00313,24.072 c 1.02399,-0.255975 2.38399,-0.527975 4.08,-0.816 1.69599,-0.287974 3.64798,-0.431974 5.856,-0.432 1.98398,2.6e-5 3.63198,0.288025 4.944,0.864 1.31198,0.544024 2.35197,1.328024 3.12,2.352 0.79997,0.992022 1.35997,2.19202 1.68,3.6 0.31997,1.408018 0.47997,2.960016 0.48,4.656 l 0,14.016 -4.464,0 0,-13.056 c -2e-5,-1.535985 -0.11202,-2.847984 -0.336,-3.936 -0.19202,-1.087982 -0.52802,-1.967981 -1.008,-2.64 -0.48002,-0.671979 -1.12002,-1.151979 -1.92,-1.44 -0.80002,-0.319978 -1.79202,-0.479978 -2.976,-0.48 -0.48002,2.2e-5 -0.97602,0.01602 -1.488,0.048 -0.51202,0.03202 -1.00802,0.08002 -1.488,0.144 -0.44801,0.03202 -0.86401,0.08002 -1.248,0.144 -0.35201,0.06402 -0.60801,0.112021 -0.768,0.144 l 0,21.072 -4.464,0 0,-24.24"
       id="path3076"
       style="letter-spacing:-2px" />
    <path
       d="m 298.41363,48.888 c -2.01602,0 -3.79202,-0.32 -5.328,-0.96 -1.50401,-0.639999 -2.78401,-1.535998 -3.84,-2.688 -1.02401,-1.151996 -1.79201,-2.511994 -2.304,-4.08 -0.51201,-1.599991 -0.76801,-3.359989 -0.768,-5.28 -10e-6,-1.919985 0.27199,-3.679984 0.816,-5.28 0.57599,-1.59998 1.37599,-2.975979 2.4,-4.128 1.02399,-1.183977 2.27199,-2.095976 3.744,-2.736 1.50398,-0.671974 3.16798,-1.007974 4.992,-1.008 1.11998,2.6e-5 2.23998,0.09603 3.36,0.288 1.11998,0.192025 2.19198,0.496025 3.216,0.912 l -1.008,3.792 c -0.67202,-0.319979 -1.45602,-0.575979 -2.352,-0.768 -0.86402,-0.191978 -1.79202,-0.287978 -2.784,-0.288 -2.49602,2.2e-5 -4.41602,0.784021 -5.76,2.352 -1.31201,1.568018 -1.96801,3.856016 -1.968,6.864 -1e-5,1.344011 0.14399,2.57601 0.432,3.696 0.31999,1.120008 0.79999,2.080007 1.44,2.88 0.67199,0.800005 1.51998,1.424005 2.544,1.872 1.02398,0.416004 2.27198,0.624004 3.744,0.624 1.18398,4e-6 2.25598,-0.111996 3.216,-0.336 0.95998,-0.223996 1.71197,-0.463996 2.256,-0.72 l 0.624,3.744 c -0.25603,0.160001 -0.62403,0.320001 -1.104,0.48 -0.48002,0.128 -1.02402,0.24 -1.632,0.336 -0.60802,0.128 -1.26402,0.224 -1.968,0.288 -0.67202,0.096 -1.32802,0.144 -1.968,0.144"
       id="path3078"
       style="letter-spacing:-2px" />
    <path
       d="m 306.48613,35.88 c -10e-6,-2.207985 0.31999,-4.127983 0.96,-5.76 0.63999,-1.66398 1.48799,-3.039978 2.544,-4.128 1.05599,-1.087976 2.27199,-1.903976 3.648,-2.448 1.37598,-0.543974 2.78398,-0.815974 4.224,-0.816 3.35998,2.6e-5 5.93598,1.056025 7.728,3.168 1.79197,2.080021 2.68797,5.264017 2.688,9.552 -3e-5,0.192013 -3e-5,0.448013 0,0.768 -3e-5,0.288012 -0.016,0.560012 -0.048,0.816 l -17.088,0 c 0.19199,2.592009 0.94399,4.560007 2.256,5.904 1.31198,1.344004 3.35998,2.016004 6.144,2.016 1.56798,4e-6 2.87998,-0.127996 3.936,-0.384 1.08797,-0.287996 1.90397,-0.559995 2.448,-0.816 l 0.624,3.744 c -0.54403,0.288001 -1.50403,0.592 -2.88,0.912 -1.34402,0.32 -2.88002,0.48 -4.608,0.48 -2.17602,0 -4.06402,-0.32 -5.664,-0.96 -1.56801,-0.671999 -2.86401,-1.583998 -3.888,-2.736 -1.02401,-1.151995 -1.79201,-2.511994 -2.304,-4.08 -0.48001,-1.599991 -0.72001,-3.343989 -0.72,-5.232 m 17.136,-2.448 c 0.032,-2.015983 -0.48002,-3.663981 -1.536,-4.944 -1.02402,-1.311979 -2.44802,-1.967978 -4.272,-1.968 -1.02402,2.2e-5 -1.93602,0.208022 -2.736,0.624 -0.76802,0.384021 -1.42401,0.896021 -1.968,1.536 -0.54401,0.640019 -0.97601,1.376019 -1.296,2.208 -0.28801,0.832017 -0.48001,1.680016 -0.576,2.544 l 12.384,0"
       id="path3080"
       style="letter-spacing:-2px" />
  </g>
</svg>
