; KISSlicer - FREE
; Linux
; version 1.1.0.14
; Built: May  8 2013, 12:05:59
; Running on 4 cores
;
; Saved: Wed Mar 23 20:50:34 2016
; 'slider2.gcode'
;
; *** Printer Settings ***
;
; printer_name = atom
; bed_STL_filename = 
; extension = gcode
; cost_per_hour = 0
; g_code_prefix = 4732380A
; g_code_warm = 3B2053656C6563742065787472756465722C207761726D
;     2C2070757267650A0A3B204266422D7374796C650A4D3C4558542B31
;     3E303420533C54454D503E0A4D3534320A4D35353C4558542B313E20
;     50333230303020533930300A4D3534330A0A3B2035442D7374796C65
;     0A543C4558542B303E0A4D31303920533C54454D503E0A
; g_code_cool = 3B2047756172616E746565642073616D65206578747275
;     6465722C20636F6F6C696E6720646F776E0A0A3B204266422D737479
;     6C650A4D3C4558542B313E303420533C54454D503E0A0A3B2035442D
;     7374796C650A4D31303420533C54454D503E0A
; g_code_N_layers = 3B204D617962652072652D686F6D65205820262059
;     3F
; g_code_postfix = 4D3134302053300A47312046333030302058300A
; post_process = NULL
; every_N_layers = 0
; num_extruders = 1
; firmware_type = 2
; add_comments = 1
; fan_on = M106
; fan_off = M107
; fan_pwm = 1
; add_m101_g10 = 0
; z_speed_mm_per_s = 3.5
; z_settle_mm = 0
; bed_size_x_mm = 140
; bed_size_y_mm = 140
; bed_size_z_mm = 120
; bed_offset_x_mm = 66
; bed_offset_y_mm = 66
; bed_offset_z_mm = 0
; bed_roughness_mm = 0.125
; travel_speed_mm_per_s = 250
; first_layer_speed_mm_per_s = 10
; dmax_per_layer_mm_per_s = 50
; xy_accel_mm_per_s_per_s = 1500
; lo_speed_perim_mm_per_s = 5
; lo_speed_solid_mm_per_s = 8
; lo_speed_sparse_mm_per_s = 8
; hi_speed_perim_mm_per_s = 40
; hi_speed_solid_mm_per_s = 45
; hi_speed_sparse_mm_per_s = 45
; ext_gain_1 = 1
; ext_material_1 = 1
; ext_axis_1 = 0
; ext_gain_2 = 1
; ext_material_2 = 0
; ext_axis_2 = 0
; ext_gain_3 = 1
; ext_material_3 = 0
; ext_axis_3 = 0
; model_ext = 0
; support_ext = 0
; support_body_ext = 0
; raft_ext = 0
; solid_loop_overlap_fraction = 0.6
;
; *** Material Settings for Extruder 1 ***
;
; material_name = PLA
; g_code_matl = 3B204D617962652073657420736F6D65206D6174657269
;     616C2D737065636966696320472D636F64653F
; fan_Z_mm = 0
; fan_loops_percent = 100
; fan_inside_percent = 0
; fan_cool_percent = 100
; temperature_C = 210
; keep_warm_C = 180
; first_layer_C = 210
; bed_C = 60
; sec_per_C_per_C = 0
; flow_min_mm3_per_s = 0.01
; flow_max_mm3_per_s = 10
; destring_suck = 2.5
; destring_prime = 2.5
; destring_min_mm = 1
; destring_trigger_mm = 100
; destring_speed_mm_per_s = 15
; Z_lift_mm = 0.1
; min_layer_time_s = 10
; wipe_mm = 10
; cost_per_cm3 = 0
; flowrate_tweak = 1
; fiber_dia_mm = 1.75
; color = 0
;
; *** Style Settings ***
;
; style_name = sample style
; layer_thickness_mm = 0.25
; extrusion_width_mm = 0.4
; num_loops = 3
; skin_thickness_mm = 1
; infill_extrusion_width = 0.4
; infill_density_denominator = 7
; stacked_layers = 1
; use_destring = 1
; use_wipe = 1
; loops_insideout = 1
; infill_st_oct_rnd = 0
; inset_surface_xy_mm = 0
; seam_jitter_degrees = 0
; seam_depth_scaler = 1
;
; *** Support Settings ***
;
; support_name = sample support
; support_sheathe = 0
; support_density = 0
; support_inflate_mm = 0
; support_gap_mm = 0.3
; support_angle_deg = 60
; support_z_max_mm = -1
; sheathe_z_max_mm = -1
; raft_mode = 0
; prime_pillar_mode = 0
; raft_inflate_mm = 3
;
; *** Actual Slicing Settings As Used ***
;
; layer_thickness_mm = 0.25
; extrusion_width = 0.4
; num_ISOs = 3
; wall_thickness = 1
; infill_style = 10
; support_style = 0
; support_angle = 59.9
; destring_min_mm = 1
; stacked_infill_layers = 1
; raft_style = 0
; extra_raft_depth = 0.125
; oversample_res_mm = 0.125
; crowning_threshold_mm = 1
; loops_insideout = 1
; solid_loop_overlap_fraction = 0.6
; inflate_raft_mm = 0
; inflate_support_mm = 0
; model_support_gap_mm = 0.3
; infill_st_oct_rnd = 0
; support_Z_max_mm = 1e+20
; sheathe_Z_max_mm = 0
; inset_surface_xy_mm = 0
; seam_jitter_degrees = 0
; seam_depth_scaler = 1
; Speed vs Quality = 0.30
; Perimeter Speed = 29.50
; Solid Speed = 33.90
; Sparse Speed = 33.90
;
; *** G-code Prefix ***
;
G28

;
; *** Main G-code ***
;
; Reset extruder pos
G92 E0
; BEGIN_LAYER_OBJECT z=0.38
;
; *** Warming Extruder 1 to 210 C ***
; Select extruder, warm, purge
; BfB-style
M104 S210
M542
M551 P32000 S900
M543
; 5D-style
T0
M109 S210

;
G92 E0
;
; fan on
M106
;
; 'Loop', 0.6 [feed mm/s], 10.0 [head mm/s]
G1 X67.88 Y69.2 Z0.475 E0 F15000
G1 X67.88 Y69.2 Z0.375 E0 F210
G1 E2.5 F900
G1 X67.67 Y69.24 E2.5134 F600
G1 X67.37 Y68.79 E2.5474
G1 X66.94 Y68.44 E2.5818
G1 X66.42 Y68.22 E2.6174
G1 X65.75 Y68.18 E2.659
G1 X65.18 Y68.37 E2.6967
G1 X64.74 Y68.68 E2.7299
G1 X64.48 Y69 E2.7557
G1 X64.35 Y69.25 E2.7735
G1 X64.12 Y69.2 E2.7879
G1 X64.12 Y66.63 E2.9478
G1 X64.13 Y66.39 E2.9627
G1 X64.23 Y66.43 E2.9692
G1 X64.4 Y66.87 E2.9986
G1 X64.72 Y67.3 E3.0318
G1 X65.18 Y67.64 E3.0675
G1 X65.69 Y67.8 E3.1005
G1 X66.12 Y67.82 E3.1274
G1 X66.61 Y67.73 E3.159
G1 X67.1 Y67.46 E3.1938
G1 X67.55 Y66.98 E3.2345
G1 X67.77 Y66.43 E3.2713
G1 X67.87 Y66.39 E3.2777
G1 X67.88 Y66.57 E3.2889
G1 X67.88 Y69.2 E3.4525
;
; 'Wipe (and De-string)', 0.0 [feed mm/s], 10.0 [head mm/s]
G1 E0.9525 F900
G1 X67.67 Y69.24 E0.9525 F600
G1 X67.37 Y68.79 E0.9525
G1 X66.94 Y68.44 E0.9525
G1 X66.42 Y68.22 E0.9525
G1 X65.75 Y68.18 E0.9525
G1 X65.18 Y68.37 E0.9525
G1 X64.74 Y68.68 E0.9525
G1 X64.48 Y69 E0.9525
G1 X64.35 Y69.25 E0.9525
G1 X64.12 Y69.2 E0.9525
G1 X64.12 Y66.63 E0.9525
G1 X64.13 Y66.39 E0.9525
G1 X64.23 Y66.43 E0.9525
G1 X64.4 Y66.87 E0.9525
G1 X64.72 Y67.3 E0.9525
G1 X65.18 Y67.64 E0.9525
G1 X65.69 Y67.8 E0.9525
G1 X66.06 Y67.82 E0.9525
G1 X66.06 Y67.82 Z0.475 E0.9525 F210
;
; 'Perimeter', 0.6 [feed mm/s], 10.0 [head mm/s]
G1 X67.23 Y71.04 E0.9525 F15000
G1 X67.23 Y71.04 Z0.375 E0.9525 F210
G1 E3.4525 F900
G1 X67.03 Y70.99 E3.4657 F600
G1 X66.56 Y71.3 E3.5009
G1 X66.14 Y71.42 E3.5279
G1 X65.66 Y71.39 E3.5581
G1 X65.08 Y71.1 E3.5985
G1 X64.79 Y70.75 E3.627
G1 X64.58 Y70.2 E3.6631
G1 X64.62 Y69.64 E3.6985
G1 X64.84 Y69.17 E3.7305
G1 X65.13 Y68.87 E3.7565
G1 X65.61 Y68.63 E3.79
G1 X66.03 Y68.58 E3.8163
G1 X66.43 Y68.64 E3.8416
G1 X66.99 Y68.96 E3.8816
G1 X67.3 Y69.42 E3.9164
G1 X67.42 Y69.9 E3.9471
G1 X67.37 Y70.37 E3.977
G1 X67.2 Y70.76 E4.0032
G1 X67.03 Y70.99 E4.021
G1 X67.09 Y71.19 E4.0343
;
; 'Wipe (and De-string)', 0.0 [feed mm/s], 10.0 [head mm/s]
G1 E1.5343 F900
G1 X67.23 Y71.04 E1.5343 F600
G1 X67.03 Y70.99 E1.5343
G1 X66.56 Y71.3 E1.5343
G1 X66.14 Y71.42 E1.5343
G1 X65.66 Y71.39 E1.5343
G1 X65.08 Y71.1 E1.5343
G1 X64.79 Y70.75 E1.5343
G1 X64.58 Y70.2 E1.5343
G1 X64.62 Y69.64 E1.5343
G1 X64.84 Y69.17 E1.5343
G1 X65.13 Y68.87 E1.5343
G1 X65.61 Y68.63 E1.5343
G1 X66.03 Y68.58 E1.5343
G1 X66.43 Y68.64 E1.5343
G1 X66.99 Y68.96 E1.5343
G1 X67.3 Y69.42 E1.5343
G1 X67.42 Y69.9 E1.5343
G1 X67.37 Y70.37 E1.5343
G1 X67.2 Y70.76 E1.5343
G1 X67.03 Y70.99 E1.5343
G1 X67.09 Y71.19 E1.5343
G1 X67.09 Y71.19 Z0.475 E1.5343 F210
;
; 'Loop', 0.6 [feed mm/s], 10.0 [head mm/s]
G1 X67.87 Y65.61 E1.5343 F15000
G1 X67.87 Y65.61 Z0.375 E1.5343 F210
G1 E4.0343 F900
G1 X67.78 Y65.57 E4.0405 F600
G1 X67.56 Y65.05 E4.0756
G1 X67.29 Y64.72 E4.1022
G1 X66.98 Y64.46 E4.1273
G1 X66.56 Y64.25 E4.1563
G1 X65.88 Y64.17 E4.1994
G1 X65.28 Y64.32 E4.2381
G1 X64.81 Y64.61 E4.2722
G1 X64.45 Y65.01 E4.3057
G1 X64.23 Y65.57 E4.3433
G1 X64.13 Y65.61 E4.3497
G1 X64.13 Y65.41 E4.3617
G1 X64.12 Y62.8 E4.5245
G1 X64.34 Y62.75 E4.5387
G1 X64.66 Y63.23 E4.5745
G1 X65.05 Y63.56 E4.6064
G1 X65.57 Y63.78 E4.6419
G1 X66.07 Y63.82 E4.673
G1 X66.56 Y63.74 E4.7041
G1 X67.05 Y63.5 E4.738
G1 X67.45 Y63.12 E4.7723
G1 X67.66 Y62.75 E4.7986
G1 X67.88 Y62.8 E4.8125
G1 X67.88 Y65.43 E4.9761
G1 X67.87 Y65.61 E4.9873
;
; 'Wipe (and De-string)', 0.0 [feed mm/s], 10.0 [head mm/s]
G1 E2.4873 F900
G1 X67.78 Y65.57 E2.4873 F600
G1 X67.56 Y65.05 E2.4873
G1 X67.29 Y64.72 E2.4873
G1 X66.98 Y64.46 E2.4873
G1 X66.56 Y64.25 E2.4873
G1 X65.88 Y64.17 E2.4873
G1 X65.28 Y64.32 E2.4873
G1 X64.81 Y64.61 E2.4873
G1 X64.45 Y65.01 E2.4873
G1 X64.23 Y65.57 E2.4873
G1 X64.13 Y65.61 E2.4873
G1 X64.13 Y65.41 E2.4873
G1 X64.12 Y62.8 E2.4873
G1 X64.34 Y62.75 E2.4873
G1 X64.66 Y63.23 E2.4873
G1 X65.05 Y63.56 E2.4873
G1 X65.57 Y63.78 E2.4873
G1 X65.83 Y63.8 E2.4873
G1 X65.83 Y63.8 Z0.475 E2.4873 F210
;
; 'Perimeter', 0.6 [feed mm/s], 10.0 [head mm/s]
G1 X67.21 Y67.07 E2.4873 F15000
G1 X67.21 Y67.07 Z0.375 E2.4873 F210
G1 E4.9873 F900
G1 X67 Y67 E5.0008 F600
G1 X66.54 Y67.31 E5.0354
G1 X66.07 Y67.43 E5.0658
G1 X65.57 Y67.36 E5.0971
G1 X65.09 Y67.1 E5.1309
G1 X64.81 Y66.77 E5.158
G1 X64.59 Y66.25 E5.1934
G1 X64.6 Y65.73 E5.2256
G1 X64.81 Y65.22 E5.2604
G1 X65.1 Y64.89 E5.2879
G1 X65.59 Y64.64 E5.3219
G1 X66.08 Y64.58 E5.353
G1 X66.55 Y64.69 E5.3827
G1 X67.01 Y64.99 E5.4174
G1 X67.31 Y65.46 E5.4521
G1 X67.43 Y65.94 E5.4827
G1 X67.36 Y66.4 E5.5122
G1 X67.18 Y66.78 E5.5382
G1 X67 Y67 E5.556
G1 X67.07 Y67.21 E5.5695
;
; 'Wipe (and De-string)', 0.0 [feed mm/s], 10.0 [head mm/s]
G1 E3.0695 F900
G1 X67.21 Y67.07 E3.0695 F600
G1 X67 Y67 E3.0695
G1 X66.54 Y67.31 E3.0695
G1 X66.07 Y67.43 E3.0695
G1 X65.57 Y67.36 E3.0695
G1 X65.09 Y67.1 E3.0695
G1 X64.81 Y66.77 E3.0695
G1 X64.59 Y66.25 E3.0695
G1 X64.6 Y65.73 E3.0695
G1 X64.81 Y65.22 E3.0695
G1 X65.1 Y64.89 E3.0695
G1 X65.59 Y64.64 E3.0695
G1 X66.08 Y64.58 E3.0695
G1 X66.55 Y64.69 E3.0695
G1 X67.01 Y64.99 E3.0695
G1 X67.31 Y65.46 E3.0695
G1 X67.43 Y65.94 E3.0695
G1 X67.36 Y66.4 E3.0695
G1 X67.18 Y66.78 E3.0695
G1 X67 Y67 E3.0695
G1 X67.07 Y67.21 E3.0695
G1 X67.07 Y67.21 Z0.475 E3.0695 F210
;
; 'Perimeter', 0.6 [feed mm/s], 10.0 [head mm/s]
G1 X67.19 Y63.1 E3.0695 F15000
G1 X67.19 Y63.1 Z0.375 E3.0695 F210
G1 E5.5695 F900
G1 X66.98 Y63.02 E5.5831 F600
G1 X66.43 Y63.36 E5.6235
G1 X66.03 Y63.42 E5.649
G1 X65.6 Y63.36 E5.6759
G1 X65.12 Y63.12 E5.7093
G1 X64.84 Y62.82 E5.7351
G1 X64.62 Y62.35 E5.7674
G1 X64.59 Y61.8 E5.8019
G1 X64.74 Y61.34 E5.832
G1 X65.07 Y60.91 E5.8654
G1 X65.58 Y60.64 E5.902
G1 X66.15 Y60.58 E5.9378
G1 X66.69 Y60.76 E5.9733
G1 X67.05 Y61.02 E6.0007
G1 X67.33 Y61.5 E6.0352
G1 X67.43 Y61.97 E6.0654
G1 X67.35 Y62.41 E6.0932
G1 X67.23 Y62.71 E6.1132
G1 X66.98 Y63.02 E6.1381
G1 X67.04 Y63.23 E6.1517
;
; 'Wipe (and De-string)', 0.0 [feed mm/s], 10.0 [head mm/s]
G1 E3.6517 F900
G1 X67.19 Y63.1 E3.6517 F600
G1 X66.98 Y63.02 E3.6517
G1 X66.43 Y63.36 E3.6517
G1 X66.03 Y63.42 E3.6517
G1 X65.6 Y63.36 E3.6517
G1 X65.12 Y63.12 E3.6517
G1 X64.84 Y62.82 E3.6517
G1 X64.62 Y62.35 E3.6517
G1 X64.59 Y61.8 E3.6517
G1 X64.74 Y61.34 E3.6517
G1 X65.07 Y60.91 E3.6517
G1 X65.58 Y60.64 E3.6517
G1 X66.15 Y60.58 E3.6517
G1 X66.69 Y60.76 E3.6517
G1 X67.05 Y61.02 E3.6517
G1 X67.33 Y61.5 E3.6517
G1 X67.43 Y61.97 E3.6517
G1 X67.35 Y62.41 E3.6517
G1 X67.23 Y62.71 E3.6517
G1 X66.98 Y63.02 E3.6517
G1 X67.04 Y63.23 E3.6517
G1 X67.04 Y63.23 Z0.475 E3.6517 F210
;
; 'Perimeter', 0.6 [feed mm/s], 10.0 [head mm/s]
G1 X67.58 Y71.4 E3.6517 F15000
G1 X67.58 Y71.4 Z0.375 E3.6517 F210
G1 E6.1517 F900
G1 X67.66 Y71.62 E6.1659 F600
G1 X67.11 Y72.05 E6.2094
G1 X66.43 Y72.26 E6.2539
G1 X65.78 Y72.28 E6.2945
G1 X65.26 Y72.19 E6.3273
G1 X64.77 Y71.97 E6.3609
G1 X64.32 Y71.6 E6.3971
G1 X63.92 Y71.05 E6.4395
G1 X63.74 Y70.39 E6.4824
G1 X63.72 Y70.01 E6.5062
G1 X63.72 Y62.02 E7.004
G1 X63.79 Y61.3 E7.0493
G1 X64.13 Y60.6 E7.0978
G1 X64.67 Y60.09 E7.1438
G1 X65.26 Y59.81 E7.1845
G1 X65.79 Y59.72 E7.2181
G1 X66.42 Y59.74 E7.2579
G1 X67.01 Y59.91 E7.296
G1 X67.46 Y60.2 E7.3295
G1 X67.87 Y60.62 E7.3662
G1 X68.19 Y61.23 E7.4091
G1 X68.28 Y62.02 E7.4586
G1 X68.28 Y69.98 E7.9547
G1 X68.21 Y70.66 E7.9975
G1 X67.99 Y71.2 E8.0339
G1 X67.66 Y71.62 E8.0672
G1 X67.44 Y71.54 E8.0814
;
; 'Wipe (and De-string)', 0.0 [feed mm/s], 10.0 [head mm/s]
G1 E5.5814 F900
G1 X67.58 Y71.4 E5.5814 F600
G1 X67.66 Y71.62 E5.5814
G1 X67.11 Y72.05 E5.5814
G1 X66.43 Y72.26 E5.5814
G1 X65.78 Y72.28 E5.5814
G1 X65.26 Y72.19 E5.5814
G1 X64.77 Y71.97 E5.5814
G1 X64.32 Y71.6 E5.5814
G1 X63.92 Y71.05 E5.5814
G1 X63.74 Y70.39 E5.5814
G1 X63.72 Y70.01 E5.5814
G1 X63.72 Y65.69 E5.5814
G1 X63.72 Y65.69 Z0.475 E5.5814 F210
;
; 'Crown', 0.7 [feed mm/s], 10.0 [head mm/s]
G1 X64.97 Y60.44 E5.5814 F15000
G1 X64.97 Y60.44 Z0.375 E5.5814 F210
G1 E8.0814 F900
G1 X64.42 Y60.98 E8.1384 F600
G1 X64.23 Y61.41 E8.1742
G1 X64.15 Y61.92 E8.2127
G1 X64.17 Y62.36 E8.2454
;
; 'Crown', 0.4 [feed mm/s], 10.0 [head mm/s]
G1 X65.52 Y64.02 E8.2454 F15000
G1 X65.5 Y63.99 E8.247 F600
G1 X65.33 Y64.03 E8.2532
G1 X65.31 Y63.99 E8.2549
G1 X65.14 Y64.03 E8.2613
G1 X65.11 Y63.98 E8.2635
G1 X64.94 Y64.04 E8.2702
G1 X64.46 Y64.48 E8.2939
G1 X64.36 Y64.74 E8.304
;
; 'Wipe (and De-string)', 0.0 [feed mm/s], 10.0 [head mm/s]
G1 E5.804 F900
G1 X64.46 Y64.48 E5.804 F600
G1 X64.94 Y64.04 E5.804
G1 X65.11 Y63.98 E5.804
G1 X65.14 Y64.03 E5.804
G1 X65.31 Y63.99 E5.804
G1 X65.33 Y64.03 E5.804
G1 X65.5 Y63.99 E5.804
G1 X65.52 Y64.02 E5.804
G1 X65.52 Y64.02 Z0.475 E5.804 F210
;
; 'Crown', 0.4 [feed mm/s], 10.0 [head mm/s]
G1 X64.37 Y67.25 E5.804 F15000
G1 X64.37 Y67.25 Z0.375 E5.804 F210
G1 E8.304 F900
G1 X64.45 Y67.52 E8.3143 F600
G1 X64.94 Y67.96 E8.3384
G1 X65.11 Y68.02 E8.3451
G1 X65.14 Y67.97 E8.3473
G1 X65.31 Y68.01 E8.3538
G1 X65.33 Y67.97 E8.3555
G1 X65.5 Y68.01 E8.3618
G1 X65.52 Y67.98 E8.3634
;
; 'Crown', 0.4 [feed mm/s], 10.0 [head mm/s]
G1 X66.47 Y67.98 E8.3634 F15000
G1 X66.5 Y68 E8.3648 F600
G1 X66.67 Y67.97 E8.3726
G1 X66.7 Y68.02 E8.3751
G1 X66.86 Y67.97 E8.3826
G1 X66.89 Y68.02 E8.3853
G1 X67.05 Y67.96 E8.3928
G1 X67.08 Y68.02 E8.3956
G1 X67.52 Y68.44 E8.4221
G1 X67.63 Y68.71 E8.4348
;
; 'Crown', 0.8 [feed mm/s], 10.0 [head mm/s]
G1 X67.83 Y69.64 E8.4348 F15000
G1 X67.85 Y70.08 E8.4679 F600
G1 X67.77 Y70.59 E8.5065
G1 X67.58 Y71.03 E8.5425
G1 X67.05 Y71.56 E8.5986
G1 X66.64 Y71.75 E8.6331
G1 X66.17 Y71.85 E8.6687
G1 X65.64 Y71.83 E8.7084
G1 X65.06 Y71.63 E8.7544
G1 X64.66 Y71.29 E8.7939
G1 X64.36 Y70.89 E8.8319
G1 X64.23 Y70.59 E8.8558
G1 X64.15 Y70.08 E8.895
G1 X64.17 Y69.64 E8.9278
;
; 'Wipe (and De-string)', 0.0 [feed mm/s], 10.0 [head mm/s]
G1 E6.4278 F900
G1 X64.15 Y70.08 E6.4278 F600
G1 X64.23 Y70.59 E6.4278
G1 X64.36 Y70.89 E6.4278
G1 X64.66 Y71.29 E6.4278
G1 X65.06 Y71.63 E6.4278
G1 X65.64 Y71.83 E6.4278
G1 X66.17 Y71.85 E6.4278
G1 X66.64 Y71.75 E6.4278
G1 X67.05 Y71.56 E6.4278
G1 X67.58 Y71.03 E6.4278
G1 X67.77 Y70.59 E6.4278
G1 X67.85 Y70.08 E6.4278
G1 X67.83 Y69.64 E6.4278
G1 X67.83 Y69.64 Z0.475 E6.4278 F210
;
; 'Crown', 0.4 [feed mm/s], 10.0 [head mm/s]
G1 X66.47 Y64.02 E6.4278 F15000
G1 X66.47 Y64.02 Z0.375 E6.4278 F210
G1 E8.9278 F900
G1 X66.5 Y64 E8.9293 F600
G1 X66.67 Y64.03 E8.937
G1 X66.7 Y63.98 E8.9396
G1 X66.86 Y64.03 E8.947
G1 X66.89 Y63.98 E8.9497
G1 X67.08 Y63.98 E8.958
G1 X67.05 Y64.04 E8.9608
G1 X67.52 Y63.56 E8.9898
G1 X67.63 Y63.29 E9.0026
;
; 'Crown', 0.8 [feed mm/s], 10.0 [head mm/s]
G1 X67.83 Y62.36 E9.0026 F15000
G1 X67.85 Y61.93 E9.0354 F600
G1 X67.77 Y61.41 E9.0753
G1 X67.59 Y60.99 E9.1099
G1 X67.05 Y60.44 E9.1678
G1 X66.64 Y60.25 E9.2025
G1 X66.17 Y60.15 E9.2383
G1 X65.64 Y60.17 E9.2783
G1 X65.08 Y60.37 E9.3233
;
; 'Wipe (and De-string)', 0.0 [feed mm/s], 10.0 [head mm/s]
G1 E6.8233 F900
G1 X65.64 Y60.17 E6.8233 F600
G1 X66.17 Y60.15 E6.8233
G1 X66.64 Y60.25 E6.8233
G1 X67.05 Y60.44 E6.8233
G1 X67.59 Y60.99 E6.8233
G1 X67.77 Y61.41 E6.8233
G1 X67.85 Y61.93 E6.8233
G1 X67.83 Y62.36 E6.8233
G1 X67.83 Y62.36 Z0.725 E6.8233 F210
; END_LAYER_OBJECT z=0.38
; Reset extruder pos
G92 E0
; BEGIN_LAYER_OBJECT z=0.62
;
; 'Loop', 1.4 [feed mm/s], 33.9 [head mm/s]
G1 X67.88 Y69.2 Z0.725 E0 F15000
G1 X67.88 Y69.2 Z0.625 E0 F210
G1 E2.5 F900
G1 X67.67 Y69.24 E2.5089 F2034
G1 X67.37 Y68.79 E2.5316
G1 X66.94 Y68.44 E2.5546
G1 X66.42 Y68.22 E2.5783
G1 X65.75 Y68.18 E2.606
G1 X65.18 Y68.37 E2.6311
G1 X64.74 Y68.68 E2.6533
G1 X64.48 Y69 E2.6705
G1 X64.35 Y69.25 E2.6824
G1 X64.12 Y69.2 E2.6919
G1 X64.12 Y66.63 E2.7986
G1 X64.13 Y66.39 E2.8084
G1 X64.23 Y66.43 E2.8128
G1 X64.4 Y66.87 E2.8324
G1 X64.72 Y67.3 E2.8546
G1 X65.18 Y67.64 E2.8783
G1 X65.69 Y67.8 E2.9003
G1 X66.12 Y67.82 E2.9183
G1 X66.61 Y67.73 E2.9393
G1 X67.1 Y67.46 E2.9625
G1 X67.55 Y66.98 E2.9897
G1 X67.77 Y66.43 E3.0142
G1 X67.87 Y66.39 E3.0185
G1 X67.88 Y66.57 E3.026
G1 X67.88 Y69.2 E3.135
;
; 'Wipe (and De-string)', 0.0 [feed mm/s], 33.9 [head mm/s]
G1 E0.635 F900
G1 X67.67 Y69.24 E0.635 F2034
G1 X67.37 Y68.79 E0.635
G1 X66.94 Y68.44 E0.635
G1 X66.42 Y68.22 E0.635
G1 X65.75 Y68.18 E0.635
G1 X65.18 Y68.37 E0.635
G1 X64.74 Y68.68 E0.635
G1 X64.48 Y69 E0.635
G1 X64.35 Y69.25 E0.635
G1 X64.12 Y69.2 E0.635
G1 X64.12 Y66.63 E0.635
G1 X64.13 Y66.39 E0.635
G1 X64.23 Y66.43 E0.635
G1 X64.4 Y66.87 E0.635
G1 X64.72 Y67.3 E0.635
G1 X65.18 Y67.64 E0.635
G1 X65.69 Y67.8 E0.635
G1 X66.06 Y67.82 E0.635
G1 X66.06 Y67.82 Z0.725 E0.635 F210
;
; 'Perimeter', 1.2 [feed mm/s], 29.5 [head mm/s]
G1 X67.23 Y71.04 E0.635 F15000
G1 X67.23 Y71.04 Z0.625 E0.635 F210
G1 E3.135 F900
G1 X67.03 Y70.99 E3.1438 F1770
G1 X66.56 Y71.3 E3.1673
G1 X66.14 Y71.42 E3.1853
G1 X65.66 Y71.39 E3.2054
G1 X65.08 Y71.1 E3.2323
G1 X64.79 Y70.75 E3.2513
G1 X64.58 Y70.2 E3.2754
G1 X64.62 Y69.64 E3.299
G1 X64.84 Y69.17 E3.3203
G1 X65.13 Y68.87 E3.3377
G1 X65.61 Y68.63 E3.36
G1 X66.03 Y68.58 E3.3775
G1 X66.43 Y68.64 E3.3944
G1 X66.99 Y68.96 E3.421
G1 X67.3 Y69.42 E3.4443
G1 X67.42 Y69.9 E3.4648
G1 X67.37 Y70.37 E3.4846
G1 X67.2 Y70.76 E3.5021
G1 X67.03 Y70.99 E3.514
G1 X67.09 Y71.19 E3.5229
;
; 'Wipe (and De-string)', 0.0 [feed mm/s], 33.9 [head mm/s]
G1 E1.0229 F900
G1 X67.23 Y71.04 E1.0229 F2034
G1 X67.03 Y70.99 E1.0229
G1 X66.56 Y71.3 E1.0229
G1 X66.14 Y71.42 E1.0229
G1 X65.66 Y71.39 E1.0229
G1 X65.08 Y71.1 E1.0229
G1 X64.79 Y70.75 E1.0229
G1 X64.58 Y70.2 E1.0229
G1 X64.62 Y69.64 E1.0229
G1 X64.84 Y69.17 E1.0229
G1 X65.13 Y68.87 E1.0229
G1 X65.61 Y68.63 E1.0229
G1 X66.03 Y68.58 E1.0229
G1 X66.43 Y68.64 E1.0229
G1 X66.99 Y68.96 E1.0229
G1 X67.3 Y69.42 E1.0229
G1 X67.42 Y69.9 E1.0229
G1 X67.37 Y70.37 E1.0229
G1 X67.2 Y70.76 E1.0229
G1 X67.03 Y70.99 E1.0229
G1 X67.09 Y71.19 E1.0229
G1 X67.09 Y71.19 Z0.725 E1.0229 F210
;
; 'Loop', 1.4 [feed mm/s], 33.9 [head mm/s]
G1 X67.87 Y65.61 E1.0229 F15000
G1 X67.87 Y65.61 Z0.625 E1.0229 F210
G1 E3.5229 F900
G1 X67.78 Y65.57 E3.527 F2034
G1 X67.56 Y65.05 E3.5504
G1 X67.29 Y64.72 E3.5681
G1 X66.98 Y64.46 E3.5849
G1 X66.56 Y64.25 E3.6042
G1 X65.88 Y64.17 E3.633
G1 X65.28 Y64.32 E3.6588
G1 X64.81 Y64.61 E3.6815
G1 X64.45 Y65.01 E3.7038
G1 X64.23 Y65.57 E3.7288
G1 X64.13 Y65.61 E3.7332
G1 X64.13 Y65.41 E3.7411
G1 X64.12 Y62.8 E3.8497
G1 X64.34 Y62.75 E3.8591
G1 X64.66 Y63.23 E3.883
G1 X65.05 Y63.56 E3.9043
G1 X65.57 Y63.78 E3.9279
G1 X66.07 Y63.82 E3.9487
G1 X66.56 Y63.74 E3.9694
G1 X67.05 Y63.5 E3.992
G1 X67.45 Y63.12 E4.0149
G1 X67.66 Y62.75 E4.0324
G1 X67.88 Y62.8 E4.0417
G1 X67.88 Y65.43 E4.1507
G1 X67.87 Y65.61 E4.1582
;
; 'Wipe (and De-string)', 0.0 [feed mm/s], 33.9 [head mm/s]
G1 E1.6582 F900
G1 X67.78 Y65.57 E1.6582 F2034
G1 X67.56 Y65.05 E1.6582
G1 X67.29 Y64.72 E1.6582
G1 X66.98 Y64.46 E1.6582
G1 X66.56 Y64.25 E1.6582
G1 X65.88 Y64.17 E1.6582
G1 X65.28 Y64.32 E1.6582
G1 X64.81 Y64.61 E1.6582
G1 X64.45 Y65.01 E1.6582
G1 X64.23 Y65.57 E1.6582
G1 X64.13 Y65.61 E1.6582
G1 X64.13 Y65.41 E1.6582
G1 X64.12 Y62.8 E1.6582
G1 X64.34 Y62.75 E1.6582
G1 X64.66 Y63.23 E1.6582
G1 X65.05 Y63.56 E1.6582
G1 X65.57 Y63.78 E1.6582
G1 X65.83 Y63.8 E1.6582
G1 X65.83 Y63.8 Z0.725 E1.6582 F210
;
; 'Perimeter', 1.2 [feed mm/s], 29.5 [head mm/s]
G1 X67.21 Y67.07 E1.6582 F15000
G1 X67.21 Y67.07 Z0.625 E1.6582 F210
G1 E4.1582 F900
G1 X67 Y67 E4.1672 F1770
G1 X66.54 Y67.31 E4.1903
G1 X66.07 Y67.43 E4.2105
G1 X65.57 Y67.36 E4.2314
G1 X65.09 Y67.1 E4.2539
G1 X64.81 Y66.77 E4.272
G1 X64.59 Y66.25 E4.2956
G1 X64.6 Y65.73 E4.317
G1 X64.81 Y65.22 E4.3403
G1 X65.1 Y64.89 E4.3586
G1 X65.59 Y64.64 E4.3812
G1 X66.08 Y64.58 E4.402
G1 X66.55 Y64.69 E4.4218
G1 X67.01 Y64.99 E4.4449
G1 X67.31 Y65.46 E4.4681
G1 X67.43 Y65.94 E4.4885
G1 X67.36 Y66.4 E4.5082
G1 X67.18 Y66.78 E4.5255
G1 X67 Y67 E4.5374
G1 X67.07 Y67.21 E4.5463
;
; 'Wipe (and De-string)', 0.0 [feed mm/s], 33.9 [head mm/s]
G1 E2.0463 F900
G1 X67.21 Y67.07 E2.0463 F2034
G1 X67 Y67 E2.0463
G1 X66.54 Y67.31 E2.0463
G1 X66.07 Y67.43 E2.0463
G1 X65.57 Y67.36 E2.0463
G1 X65.09 Y67.1 E2.0463
G1 X64.81 Y66.77 E2.0463
G1 X64.59 Y66.25 E2.0463
G1 X64.6 Y65.73 E2.0463
G1 X64.81 Y65.22 E2.0463
G1 X65.1 Y64.89 E2.0463
G1 X65.59 Y64.64 E2.0463
G1 X66.08 Y64.58 E2.0463
G1 X66.55 Y64.69 E2.0463
G1 X67.01 Y64.99 E2.0463
G1 X67.31 Y65.46 E2.0463
G1 X67.43 Y65.94 E2.0463
G1 X67.36 Y66.4 E2.0463
G1 X67.18 Y66.78 E2.0463
G1 X67 Y67 E2.0463
G1 X67.07 Y67.21 E2.0463
G1 X67.07 Y67.21 Z0.725 E2.0463 F210
;
; 'Perimeter', 1.2 [feed mm/s], 29.5 [head mm/s]
G1 X67.19 Y63.1 E2.0463 F15000
G1 X67.19 Y63.1 Z0.625 E2.0463 F210
G1 E4.5463 F900
G1 X66.98 Y63.02 E4.5554 F1770
G1 X66.43 Y63.36 E4.5823
G1 X66.03 Y63.42 E4.5993
G1 X65.6 Y63.36 E4.6172
G1 X65.12 Y63.12 E4.6395
G1 X64.84 Y62.82 E4.6567
G1 X64.62 Y62.35 E4.6783
G1 X64.59 Y61.8 E4.7013
G1 X64.74 Y61.34 E4.7214
G1 X65.07 Y60.91 E4.7436
G1 X65.58 Y60.64 E4.768
G1 X66.15 Y60.58 E4.7919
G1 X66.69 Y60.76 E4.8155
G1 X67.05 Y61.02 E4.8338
G1 X67.33 Y61.5 E4.8568
G1 X67.43 Y61.97 E4.877
G1 X67.35 Y62.41 E4.8954
G1 X67.23 Y62.71 E4.9088
G1 X66.98 Y63.02 E4.9254
G1 X67.04 Y63.23 E4.9345
;
; 'Wipe (and De-string)', 0.0 [feed mm/s], 33.9 [head mm/s]
G1 E2.4345 F900
G1 X67.19 Y63.1 E2.4345 F2034
G1 X66.98 Y63.02 E2.4345
G1 X66.43 Y63.36 E2.4345
G1 X66.03 Y63.42 E2.4345
G1 X65.6 Y63.36 E2.4345
G1 X65.12 Y63.12 E2.4345
G1 X64.84 Y62.82 E2.4345
G1 X64.62 Y62.35 E2.4345
G1 X64.59 Y61.8 E2.4345
G1 X64.74 Y61.34 E2.4345
G1 X65.07 Y60.91 E2.4345
G1 X65.58 Y60.64 E2.4345
G1 X66.15 Y60.58 E2.4345
G1 X66.69 Y60.76 E2.4345
G1 X67.05 Y61.02 E2.4345
G1 X67.33 Y61.5 E2.4345
G1 X67.43 Y61.97 E2.4345
G1 X67.35 Y62.41 E2.4345
G1 X67.23 Y62.71 E2.4345
G1 X66.98 Y63.02 E2.4345
G1 X67.04 Y63.23 E2.4345
G1 X67.04 Y63.23 Z0.725 E2.4345 F210
;
; 'Perimeter', 1.2 [feed mm/s], 29.5 [head mm/s]
G1 X67.58 Y71.4 E2.4345 F15000
G1 X67.58 Y71.4 Z0.625 E2.4345 F210
G1 E4.9345 F900
G1 X67.66 Y71.62 E4.9439 F1770
G1 X67.11 Y72.05 E4.973
G1 X66.43 Y72.26 E5.0026
G1 X65.78 Y72.28 E5.0297
G1 X65.26 Y72.19 E5.0516
G1 X64.77 Y71.97 E5.074
G1 X64.32 Y71.6 E5.0981
G1 X63.92 Y71.05 E5.1264
G1 X63.74 Y70.39 E5.155
G1 X63.72 Y70.01 E5.1708
G1 X63.72 Y62.02 E5.5026
G1 X63.79 Y61.3 E5.5329
G1 X64.13 Y60.6 E5.5652
G1 X64.67 Y60.09 E5.5959
G1 X65.26 Y59.81 E5.623
G1 X65.79 Y59.72 E5.6454
G1 X66.42 Y59.74 E5.6719
G1 X67.01 Y59.91 E5.6973
G1 X67.46 Y60.2 E5.7197
G1 X67.87 Y60.62 E5.7441
G1 X68.19 Y61.23 E5.7727
G1 X68.28 Y62.02 E5.8057
G1 X68.28 Y69.98 E6.1365
G1 X68.21 Y70.66 E6.165
G1 X67.99 Y71.2 E6.1892
G1 X67.66 Y71.62 E6.2114
G1 X67.44 Y71.54 E6.2209
;
; 'Wipe (and De-string)', 0.0 [feed mm/s], 33.9 [head mm/s]
G1 E3.7209 F900
G1 X67.58 Y71.4 E3.7209 F2034
G1 X67.66 Y71.62 E3.7209
G1 X67.11 Y72.05 E3.7209
G1 X66.43 Y72.26 E3.7209
G1 X65.78 Y72.28 E3.7209
G1 X65.26 Y72.19 E3.7209
G1 X64.77 Y71.97 E3.7209
G1 X64.32 Y71.6 E3.7209
G1 X63.92 Y71.05 E3.7209
G1 X63.74 Y70.39 E3.7209
G1 X63.72 Y70.01 E3.7209
G1 X63.72 Y65.69 E3.7209
G1 X63.72 Y65.69 Z0.725 E3.7209 F210
;
; 'Crown', 1.6 [feed mm/s], 32.2 [head mm/s]
G1 X64.97 Y60.44 E3.7209 F15000
G1 X64.97 Y60.44 Z0.625 E3.7209 F210
G1 E6.2209 F900
G1 X64.42 Y60.98 E6.259 F1929.8
G1 X64.23 Y61.41 E6.2828
G1 X64.15 Y61.92 E6.3085
G1 X64.17 Y62.36 E6.3303
;
; 'Crown', 0.8 [feed mm/s], 32.9 [head mm/s]
G1 X65.52 Y64.02 E6.3303 F15000
G1 X65.5 Y63.99 E6.3313 F1974.1
G1 X65.33 Y64.03 E6.3355
G1 X65.31 Y63.99 E6.3366
G1 X65.14 Y64.03 E6.3409
G1 X65.11 Y63.98 E6.3423
G1 X64.94 Y64.04 E6.3468
G1 X64.46 Y64.48 E6.3626
G1 X64.36 Y64.74 E6.3694
;
; 'Wipe (and De-string)', 0.0 [feed mm/s], 33.9 [head mm/s]
G1 E3.8694 F900
G1 X64.46 Y64.48 E3.8694 F2034
G1 X64.94 Y64.04 E3.8694
G1 X65.11 Y63.98 E3.8694
G1 X65.14 Y64.03 E3.8694
G1 X65.31 Y63.99 E3.8694
G1 X65.33 Y64.03 E3.8694
G1 X65.5 Y63.99 E3.8694
G1 X65.52 Y64.02 E3.8694
G1 X65.52 Y64.02 Z0.725 E3.8694 F210
;
; 'Crown', 0.8 [feed mm/s], 32.9 [head mm/s]
G1 X64.37 Y67.25 E3.8694 F15000
G1 X64.37 Y67.25 Z0.625 E3.8694 F210
G1 E6.3694 F900
G1 X64.45 Y67.52 E6.3762 F1974.2
G1 X64.94 Y67.96 E6.3923
G1 X65.11 Y68.02 E6.3968
G1 X65.14 Y67.97 E6.3982
G1 X65.31 Y68.01 E6.4025
G1 X65.33 Y67.97 E6.4037
G1 X65.5 Y68.01 E6.4079
G1 X65.52 Y67.98 E6.4089
;
; 'Crown', 1.0 [feed mm/s], 33.0 [head mm/s]
G1 X66.47 Y67.98 E6.4089 F15000
G1 X66.5 Y68 E6.4099 F1977.3
G1 X66.67 Y67.97 E6.4151
G1 X66.7 Y68.02 E6.4168
G1 X66.86 Y67.97 E6.4217
G1 X66.89 Y68.02 E6.4235
G1 X67.05 Y67.96 E6.4286
G1 X67.08 Y68.02 E6.4304
G1 X67.52 Y68.44 E6.448
G1 X67.63 Y68.71 E6.4565
;
; 'Crown', 1.6 [feed mm/s], 32.2 [head mm/s]
G1 X67.83 Y69.64 E6.4565 F15000
G1 X67.85 Y70.08 E6.4786 F1930
G1 X67.77 Y70.59 E6.5043
G1 X67.58 Y71.03 E6.5283
G1 X67.05 Y71.56 E6.5658
G1 X66.64 Y71.75 E6.5887
G1 X66.17 Y71.85 E6.6124
G1 X65.64 Y71.83 E6.6389
G1 X65.06 Y71.63 E6.6696
G1 X64.66 Y71.29 E6.6959
G1 X64.36 Y70.89 E6.7212
G1 X64.23 Y70.59 E6.7372
G1 X64.15 Y70.08 E6.7633
G1 X64.17 Y69.64 E6.7852
;
; 'Wipe (and De-string)', 0.0 [feed mm/s], 33.9 [head mm/s]
G1 E4.2852 F900
G1 X64.15 Y70.08 E4.2852 F2034
G1 X64.23 Y70.59 E4.2852
G1 X64.36 Y70.89 E4.2852
G1 X64.66 Y71.29 E4.2852
G1 X65.06 Y71.63 E4.2852
G1 X65.64 Y71.83 E4.2852
G1 X66.17 Y71.85 E4.2852
G1 X66.64 Y71.75 E4.2852
G1 X67.05 Y71.56 E4.2852
G1 X67.58 Y71.03 E4.2852
G1 X67.77 Y70.59 E4.2852
G1 X67.85 Y70.08 E4.2852
G1 X67.83 Y69.64 E4.2852
G1 X67.83 Y69.64 Z0.725 E4.2852 F210
;
; 'Crown', 1.0 [feed mm/s], 33.0 [head mm/s]
G1 X66.47 Y64.02 E4.2852 F15000
G1 X66.47 Y64.02 Z0.625 E4.2852 F210
G1 E6.7852 F900
G1 X66.5 Y64 E6.7862 F1977.3
G1 X66.67 Y64.03 E6.7913
G1 X66.7 Y63.98 E6.793
G1 X66.86 Y64.03 E6.798
G1 X66.89 Y63.98 E6.7998
G1 X67.08 Y63.98 E6.8053
G1 X67.05 Y64.04 E6.8072
G1 X67.52 Y63.56 E6.8266
G1 X67.63 Y63.29 E6.8351
;
; 'Crown', 1.6 [feed mm/s], 32.2 [head mm/s]
G1 X67.83 Y62.36 E6.8351 F15000
G1 X67.85 Y61.93 E6.857 F1930.3
G1 X67.77 Y61.41 E6.8835
G1 X67.59 Y60.99 E6.9066
G1 X67.05 Y60.44 E6.9452
G1 X66.64 Y60.25 E6.9683
G1 X66.17 Y60.15 E6.9922
G1 X65.64 Y60.17 E7.0189
G1 X65.08 Y60.37 E7.0489
;
; 'Wipe (and De-string)', 0.0 [feed mm/s], 33.9 [head mm/s]
G1 E4.5489 F900
G1 X65.64 Y60.17 E4.5489 F2034
G1 X66.17 Y60.15 E4.5489
G1 X66.64 Y60.25 E4.5489
G1 X67.05 Y60.44 E4.5489
G1 X67.59 Y60.99 E4.5489
G1 X67.77 Y61.41 E4.5489
G1 X67.85 Y61.93 E4.5489
G1 X67.83 Y62.36 E4.5489
G1 X67.83 Y62.36 Z0.975 E4.5489 F210
; END_LAYER_OBJECT z=0.62
; Reset extruder pos
G92 E0
; BEGIN_LAYER_OBJECT z=0.88
;
; 'Loop', 1.4 [feed mm/s], 33.9 [head mm/s]
G1 X67.88 Y69.2 Z0.975 E0 F15000
G1 X67.88 Y69.2 Z0.875 E0 F210
G1 E2.5 F900
G1 X67.67 Y69.24 E2.5089 F2034
G1 X67.37 Y68.79 E2.5316
G1 X66.94 Y68.44 E2.5546
G1 X66.42 Y68.22 E2.5783
G1 X65.75 Y68.18 E2.606
G1 X65.18 Y68.37 E2.6311
G1 X64.74 Y68.68 E2.6533
G1 X64.48 Y69 E2.6705
G1 X64.35 Y69.25 E2.6824
G1 X64.12 Y69.2 E2.6919
G1 X64.12 Y66.63 E2.7986
G1 X64.13 Y66.39 E2.8084
G1 X64.23 Y66.43 E2.8128
G1 X64.4 Y66.87 E2.8324
G1 X64.72 Y67.3 E2.8546
G1 X65.18 Y67.64 E2.8783
G1 X65.69 Y67.8 E2.9003
G1 X66.12 Y67.82 E2.9183
G1 X66.61 Y67.73 E2.9393
G1 X67.1 Y67.46 E2.9625
G1 X67.55 Y66.98 E2.9897
G1 X67.77 Y66.43 E3.0142
G1 X67.87 Y66.39 E3.0185
G1 X67.88 Y66.57 E3.026
G1 X67.88 Y69.2 E3.135
;
; 'Wipe (and De-string)', 0.0 [feed mm/s], 33.9 [head mm/s]
G1 E0.635 F900
G1 X67.67 Y69.24 E0.635 F2034
G1 X67.37 Y68.79 E0.635
G1 X66.94 Y68.44 E0.635
G1 X66.42 Y68.22 E0.635
G1 X65.75 Y68.18 E0.635
G1 X65.18 Y68.37 E0.635
G1 X64.74 Y68.68 E0.635
G1 X64.48 Y69 E0.635
G1 X64.35 Y69.25 E0.635
G1 X64.12 Y69.2 E0.635
G1 X64.12 Y66.63 E0.635
G1 X64.13 Y66.39 E0.635
G1 X64.23 Y66.43 E0.635
G1 X64.4 Y66.87 E0.635
G1 X64.72 Y67.3 E0.635
G1 X65.18 Y67.64 E0.635
G1 X65.69 Y67.8 E0.635
G1 X66.06 Y67.82 E0.635
G1 X66.06 Y67.82 Z0.975 E0.635 F210
;
; 'Perimeter', 1.2 [feed mm/s], 29.5 [head mm/s]
G1 X67.23 Y71.04 E0.635 F15000
G1 X67.23 Y71.04 Z0.875 E0.635 F210
G1 E3.135 F900
G1 X67.03 Y70.99 E3.1438 F1770
G1 X66.56 Y71.3 E3.1673
G1 X66.14 Y71.42 E3.1853
G1 X65.66 Y71.39 E3.2054
G1 X65.08 Y71.1 E3.2323
G1 X64.79 Y70.75 E3.2513
G1 X64.58 Y70.2 E3.2754
G1 X64.62 Y69.64 E3.299
G1 X64.84 Y69.17 E3.3203
G1 X65.13 Y68.87 E3.3377
G1 X65.61 Y68.63 E3.36
G1 X66.03 Y68.58 E3.3775
G1 X66.43 Y68.64 E3.3944
G1 X66.99 Y68.96 E3.421
G1 X67.3 Y69.42 E3.4443
G1 X67.42 Y69.9 E3.4648
G1 X67.37 Y70.37 E3.4846
G1 X67.2 Y70.76 E3.5021
G1 X67.03 Y70.99 E3.514
G1 X67.09 Y71.19 E3.5229
;
; 'Wipe (and De-string)', 0.0 [feed mm/s], 33.9 [head mm/s]
G1 E1.0229 F900
G1 X67.23 Y71.04 E1.0229 F2034
G1 X67.03 Y70.99 E1.0229
G1 X66.56 Y71.3 E1.0229
G1 X66.14 Y71.42 E1.0229
G1 X65.66 Y71.39 E1.0229
G1 X65.08 Y71.1 E1.0229
G1 X64.79 Y70.75 E1.0229
G1 X64.58 Y70.2 E1.0229
G1 X64.62 Y69.64 E1.0229
G1 X64.84 Y69.17 E1.0229
G1 X65.13 Y68.87 E1.0229
G1 X65.61 Y68.63 E1.0229
G1 X66.03 Y68.58 E1.0229
G1 X66.43 Y68.64 E1.0229
G1 X66.99 Y68.96 E1.0229
G1 X67.3 Y69.42 E1.0229
G1 X67.42 Y69.9 E1.0229
G1 X67.37 Y70.37 E1.0229
G1 X67.2 Y70.76 E1.0229
G1 X67.03 Y70.99 E1.0229
G1 X67.09 Y71.19 E1.0229
G1 X67.09 Y71.19 Z0.975 E1.0229 F210
;
; 'Loop', 1.4 [feed mm/s], 33.9 [head mm/s]
G1 X67.87 Y65.61 E1.0229 F15000
G1 X67.87 Y65.61 Z0.875 E1.0229 F210
G1 E3.5229 F900
G1 X67.78 Y65.57 E3.527 F2034
G1 X67.56 Y65.05 E3.5504
G1 X67.29 Y64.72 E3.5681
G1 X66.98 Y64.46 E3.5849
G1 X66.56 Y64.25 E3.6042
G1 X65.88 Y64.17 E3.633
G1 X65.28 Y64.32 E3.6588
G1 X64.81 Y64.61 E3.6815
G1 X64.45 Y65.01 E3.7038
G1 X64.23 Y65.57 E3.7288
G1 X64.13 Y65.61 E3.7332
G1 X64.13 Y65.41 E3.7411
G1 X64.12 Y62.8 E3.8497
G1 X64.34 Y62.75 E3.8591
G1 X64.66 Y63.23 E3.883
G1 X65.05 Y63.56 E3.9043
G1 X65.57 Y63.78 E3.9279
G1 X66.07 Y63.82 E3.9487
G1 X66.56 Y63.74 E3.9694
G1 X67.05 Y63.5 E3.992
G1 X67.45 Y63.12 E4.0149
G1 X67.66 Y62.75 E4.0324
G1 X67.88 Y62.8 E4.0417
G1 X67.88 Y65.43 E4.1507
G1 X67.87 Y65.61 E4.1582
;
; 'Wipe (and De-string)', 0.0 [feed mm/s], 33.9 [head mm/s]
G1 E1.6582 F900
G1 X67.78 Y65.57 E1.6582 F2034
G1 X67.56 Y65.05 E1.6582
G1 X67.29 Y64.72 E1.6582
G1 X66.98 Y64.46 E1.6582
G1 X66.56 Y64.25 E1.6582
G1 X65.88 Y64.17 E1.6582
G1 X65.28 Y64.32 E1.6582
G1 X64.81 Y64.61 E1.6582
G1 X64.45 Y65.01 E1.6582
G1 X64.23 Y65.57 E1.6582
G1 X64.13 Y65.61 E1.6582
G1 X64.13 Y65.41 E1.6582
G1 X64.12 Y62.8 E1.6582
G1 X64.34 Y62.75 E1.6582
G1 X64.66 Y63.23 E1.6582
G1 X65.05 Y63.56 E1.6582
G1 X65.57 Y63.78 E1.6582
G1 X65.83 Y63.8 E1.6582
G1 X65.83 Y63.8 Z0.975 E1.6582 F210
;
; 'Perimeter', 1.2 [feed mm/s], 29.5 [head mm/s]
G1 X67.21 Y67.07 E1.6582 F15000
G1 X67.21 Y67.07 Z0.875 E1.6582 F210
G1 E4.1582 F900
G1 X67 Y67 E4.1672 F1770
G1 X66.54 Y67.31 E4.1903
G1 X66.07 Y67.43 E4.2105
G1 X65.57 Y67.36 E4.2314
G1 X65.09 Y67.1 E4.2539
G1 X64.81 Y66.77 E4.272
G1 X64.59 Y66.25 E4.2956
G1 X64.6 Y65.73 E4.317
G1 X64.81 Y65.22 E4.3403
G1 X65.1 Y64.89 E4.3586
G1 X65.59 Y64.64 E4.3812
G1 X66.08 Y64.58 E4.402
G1 X66.55 Y64.69 E4.4218
G1 X67.01 Y64.99 E4.4449
G1 X67.31 Y65.46 E4.4681
G1 X67.43 Y65.94 E4.4885
G1 X67.36 Y66.4 E4.5082
G1 X67.18 Y66.78 E4.5255
G1 X67 Y67 E4.5374
G1 X67.07 Y67.21 E4.5463
;
; 'Wipe (and De-string)', 0.0 [feed mm/s], 33.9 [head mm/s]
G1 E2.0463 F900
G1 X67.21 Y67.07 E2.0463 F2034
G1 X67 Y67 E2.0463
G1 X66.54 Y67.31 E2.0463
G1 X66.07 Y67.43 E2.0463
G1 X65.57 Y67.36 E2.0463
G1 X65.09 Y67.1 E2.0463
G1 X64.81 Y66.77 E2.0463
G1 X64.59 Y66.25 E2.0463
G1 X64.6 Y65.73 E2.0463
G1 X64.81 Y65.22 E2.0463
G1 X65.1 Y64.89 E2.0463
G1 X65.59 Y64.64 E2.0463
G1 X66.08 Y64.58 E2.0463
G1 X66.55 Y64.69 E2.0463
G1 X67.01 Y64.99 E2.0463
G1 X67.31 Y65.46 E2.0463
G1 X67.43 Y65.94 E2.0463
G1 X67.36 Y66.4 E2.0463
G1 X67.18 Y66.78 E2.0463
G1 X67 Y67 E2.0463
G1 X67.07 Y67.21 E2.0463
G1 X67.07 Y67.21 Z0.975 E2.0463 F210
;
; 'Perimeter', 1.2 [feed mm/s], 29.5 [head mm/s]
G1 X67.19 Y63.1 E2.0463 F15000
G1 X67.19 Y63.1 Z0.875 E2.0463 F210
G1 E4.5463 F900
G1 X66.98 Y63.02 E4.5554 F1770
G1 X66.43 Y63.36 E4.5823
G1 X66.03 Y63.42 E4.5993
G1 X65.6 Y63.36 E4.6172
G1 X65.12 Y63.12 E4.6395
G1 X64.84 Y62.82 E4.6567
G1 X64.62 Y62.35 E4.6783
G1 X64.59 Y61.8 E4.7013
G1 X64.74 Y61.34 E4.7214
G1 X65.07 Y60.91 E4.7436
G1 X65.58 Y60.64 E4.768
G1 X66.15 Y60.58 E4.7919
G1 X66.69 Y60.76 E4.8155
G1 X67.05 Y61.02 E4.8338
G1 X67.33 Y61.5 E4.8568
G1 X67.43 Y61.97 E4.877
G1 X67.35 Y62.41 E4.8954
G1 X67.23 Y62.71 E4.9088
G1 X66.98 Y63.02 E4.9254
G1 X67.04 Y63.23 E4.9345
;
; 'Wipe (and De-string)', 0.0 [feed mm/s], 33.9 [head mm/s]
G1 E2.4345 F900
G1 X67.19 Y63.1 E2.4345 F2034
G1 X66.98 Y63.02 E2.4345
G1 X66.43 Y63.36 E2.4345
G1 X66.03 Y63.42 E2.4345
G1 X65.6 Y63.36 E2.4345
G1 X65.12 Y63.12 E2.4345
G1 X64.84 Y62.82 E2.4345
G1 X64.62 Y62.35 E2.4345
G1 X64.59 Y61.8 E2.4345
G1 X64.74 Y61.34 E2.4345
G1 X65.07 Y60.91 E2.4345
G1 X65.58 Y60.64 E2.4345
G1 X66.15 Y60.58 E2.4345
G1 X66.69 Y60.76 E2.4345
G1 X67.05 Y61.02 E2.4345
G1 X67.33 Y61.5 E2.4345
G1 X67.43 Y61.97 E2.4345
G1 X67.35 Y62.41 E2.4345
G1 X67.23 Y62.71 E2.4345
G1 X66.98 Y63.02 E2.4345
G1 X67.04 Y63.23 E2.4345
G1 X67.04 Y63.23 Z0.975 E2.4345 F210
;
; 'Perimeter', 1.2 [feed mm/s], 29.5 [head mm/s]
G1 X67.58 Y71.4 E2.4345 F15000
G1 X67.58 Y71.4 Z0.875 E2.4345 F210
G1 E4.9345 F900
G1 X67.66 Y71.62 E4.9439 F1770
G1 X67.11 Y72.05 E4.973
G1 X66.43 Y72.26 E5.0026
G1 X65.78 Y72.28 E5.0297
G1 X65.26 Y72.19 E5.0516
G1 X64.77 Y71.97 E5.074
G1 X64.32 Y71.6 E5.0981
G1 X63.92 Y71.05 E5.1264
G1 X63.74 Y70.39 E5.155
G1 X63.72 Y70.01 E5.1708
G1 X63.72 Y62.02 E5.5026
G1 X63.79 Y61.3 E5.5329
G1 X64.13 Y60.6 E5.5652
G1 X64.67 Y60.09 E5.5959
G1 X65.26 Y59.81 E5.623
G1 X65.79 Y59.72 E5.6454
G1 X66.42 Y59.74 E5.6719
G1 X67.01 Y59.91 E5.6973
G1 X67.46 Y60.2 E5.7197
G1 X67.87 Y60.62 E5.7441
G1 X68.19 Y61.23 E5.7727
G1 X68.28 Y62.02 E5.8057
G1 X68.28 Y69.98 E6.1365
G1 X68.21 Y70.66 E6.165
G1 X67.99 Y71.2 E6.1892
G1 X67.66 Y71.62 E6.2114
G1 X67.44 Y71.54 E6.2209
;
; 'Wipe (and De-string)', 0.0 [feed mm/s], 33.9 [head mm/s]
G1 E3.7209 F900
G1 X67.58 Y71.4 E3.7209 F2034
G1 X67.66 Y71.62 E3.7209
G1 X67.11 Y72.05 E3.7209
G1 X66.43 Y72.26 E3.7209
G1 X65.78 Y72.28 E3.7209
G1 X65.26 Y72.19 E3.7209
G1 X64.77 Y71.97 E3.7209
G1 X64.32 Y71.6 E3.7209
G1 X63.92 Y71.05 E3.7209
G1 X63.74 Y70.39 E3.7209
G1 X63.72 Y70.01 E3.7209
G1 X63.72 Y65.69 E3.7209
G1 X63.72 Y65.69 Z0.975 E3.7209 F210
;
; 'Crown', 1.6 [feed mm/s], 32.2 [head mm/s]
G1 X64.97 Y60.44 E3.7209 F15000
G1 X64.97 Y60.44 Z0.875 E3.7209 F210
G1 E6.2209 F900
G1 X64.42 Y60.98 E6.259 F1929.8
G1 X64.23 Y61.41 E6.2828
G1 X64.15 Y61.92 E6.3085
G1 X64.17 Y62.36 E6.3303
;
; 'Crown', 0.8 [feed mm/s], 32.9 [head mm/s]
G1 X65.52 Y64.02 E6.3303 F15000
G1 X65.5 Y63.99 E6.3313 F1974.1
G1 X65.33 Y64.03 E6.3355
G1 X65.31 Y63.99 E6.3366
G1 X65.14 Y64.03 E6.3409
G1 X65.11 Y63.98 E6.3423
G1 X64.94 Y64.04 E6.3468
G1 X64.46 Y64.48 E6.3626
G1 X64.36 Y64.74 E6.3694
;
; 'Wipe (and De-string)', 0.0 [feed mm/s], 33.9 [head mm/s]
G1 E3.8694 F900
G1 X64.46 Y64.48 E3.8694 F2034
G1 X64.94 Y64.04 E3.8694
G1 X65.11 Y63.98 E3.8694
G1 X65.14 Y64.03 E3.8694
G1 X65.31 Y63.99 E3.8694
G1 X65.33 Y64.03 E3.8694
G1 X65.5 Y63.99 E3.8694
G1 X65.52 Y64.02 E3.8694
G1 X65.52 Y64.02 Z0.975 E3.8694 F210
;
; 'Crown', 0.8 [feed mm/s], 32.9 [head mm/s]
G1 X64.37 Y67.25 E3.8694 F15000
G1 X64.37 Y67.25 Z0.875 E3.8694 F210
G1 E6.3694 F900
G1 X64.45 Y67.52 E6.3762 F1974.2
G1 X64.94 Y67.96 E6.3923
G1 X65.11 Y68.02 E6.3968
G1 X65.14 Y67.97 E6.3982
G1 X65.31 Y68.01 E6.4025
G1 X65.33 Y67.97 E6.4037
G1 X65.5 Y68.01 E6.4079
G1 X65.52 Y67.98 E6.4089
;
; 'Crown', 1.0 [feed mm/s], 33.0 [head mm/s]
G1 X66.47 Y67.98 E6.4089 F15000
G1 X66.5 Y68 E6.4099 F1977.3
G1 X66.67 Y67.97 E6.4151
G1 X66.7 Y68.02 E6.4168
G1 X66.86 Y67.97 E6.4217
G1 X66.89 Y68.02 E6.4235
G1 X67.05 Y67.96 E6.4286
G1 X67.08 Y68.02 E6.4304
G1 X67.52 Y68.44 E6.448
G1 X67.63 Y68.71 E6.4565
;
; 'Crown', 1.6 [feed mm/s], 32.2 [head mm/s]
G1 X67.83 Y69.64 E6.4565 F15000
G1 X67.85 Y70.08 E6.4786 F1930
G1 X67.77 Y70.59 E6.5043
G1 X67.58 Y71.03 E6.5283
G1 X67.05 Y71.56 E6.5658
G1 X66.64 Y71.75 E6.5887
G1 X66.17 Y71.85 E6.6124
G1 X65.64 Y71.83 E6.6389
G1 X65.06 Y71.63 E6.6696
G1 X64.66 Y71.29 E6.6959
G1 X64.36 Y70.89 E6.7212
G1 X64.23 Y70.59 E6.7372
G1 X64.15 Y70.08 E6.7633
G1 X64.17 Y69.64 E6.7852
;
; 'Wipe (and De-string)', 0.0 [feed mm/s], 33.9 [head mm/s]
G1 E4.2852 F900
G1 X64.15 Y70.08 E4.2852 F2034
G1 X64.23 Y70.59 E4.2852
G1 X64.36 Y70.89 E4.2852
G1 X64.66 Y71.29 E4.2852
G1 X65.06 Y71.63 E4.2852
G1 X65.64 Y71.83 E4.2852
G1 X66.17 Y71.85 E4.2852
G1 X66.64 Y71.75 E4.2852
G1 X67.05 Y71.56 E4.2852
G1 X67.58 Y71.03 E4.2852
G1 X67.77 Y70.59 E4.2852
G1 X67.85 Y70.08 E4.2852
G1 X67.83 Y69.64 E4.2852
G1 X67.83 Y69.64 Z0.975 E4.2852 F210
;
; 'Crown', 1.0 [feed mm/s], 33.0 [head mm/s]
G1 X66.47 Y64.02 E4.2852 F15000
G1 X66.47 Y64.02 Z0.875 E4.2852 F210
G1 E6.7852 F900
G1 X66.5 Y64 E6.7862 F1977.3
G1 X66.67 Y64.03 E6.7913
G1 X66.7 Y63.98 E6.793
G1 X66.86 Y64.03 E6.798
G1 X66.89 Y63.98 E6.7998
G1 X67.08 Y63.98 E6.8053
G1 X67.05 Y64.04 E6.8072
G1 X67.52 Y63.56 E6.8266
G1 X67.63 Y63.29 E6.8351
;
; 'Crown', 1.6 [feed mm/s], 32.2 [head mm/s]
G1 X67.83 Y62.36 E6.8351 F15000
G1 X67.85 Y61.93 E6.857 F1930.3
G1 X67.77 Y61.41 E6.8835
G1 X67.59 Y60.99 E6.9066
G1 X67.05 Y60.44 E6.9452
G1 X66.64 Y60.25 E6.9683
G1 X66.17 Y60.15 E6.9922
G1 X65.64 Y60.17 E7.0189
G1 X65.08 Y60.37 E7.0489
;
; 'Wipe (and De-string)', 0.0 [feed mm/s], 33.9 [head mm/s]
G1 E4.5489 F900
G1 X65.64 Y60.17 E4.5489 F2034
G1 X66.17 Y60.15 E4.5489
G1 X66.64 Y60.25 E4.5489
G1 X67.05 Y60.44 E4.5489
G1 X67.59 Y60.99 E4.5489
G1 X67.77 Y61.41 E4.5489
G1 X67.85 Y61.93 E4.5489
G1 X67.83 Y62.36 E4.5489
G1 X67.83 Y62.36 Z1.225 E4.5489 F210
; END_LAYER_OBJECT z=0.88
; Reset extruder pos
G92 E0
; BEGIN_LAYER_OBJECT z=1.12
;
; 'Loop', 1.4 [feed mm/s], 33.9 [head mm/s]
G1 X67.88 Y69.2 Z1.225 E0 F15000
G1 X67.88 Y69.2 Z1.125 E0 F210
G1 E2.5 F900
G1 X67.67 Y69.24 E2.5089 F2034
G1 X67.37 Y68.79 E2.5316
G1 X66.94 Y68.44 E2.5546
G1 X66.42 Y68.22 E2.5783
G1 X65.75 Y68.18 E2.606
G1 X65.18 Y68.37 E2.6311
G1 X64.74 Y68.68 E2.6533
G1 X64.48 Y69 E2.6705
G1 X64.35 Y69.25 E2.6824
G1 X64.12 Y69.2 E2.6919
G1 X64.12 Y66.63 E2.7986
G1 X64.13 Y66.39 E2.8084
G1 X64.23 Y66.43 E2.8128
G1 X64.4 Y66.87 E2.8324
G1 X64.72 Y67.3 E2.8546
G1 X65.18 Y67.64 E2.8783
G1 X65.69 Y67.8 E2.9003
G1 X66.12 Y67.82 E2.9183
G1 X66.61 Y67.73 E2.9393
G1 X67.1 Y67.46 E2.9625
G1 X67.55 Y66.98 E2.9897
G1 X67.77 Y66.43 E3.0142
G1 X67.87 Y66.39 E3.0185
G1 X67.88 Y66.57 E3.026
G1 X67.88 Y69.2 E3.135
;
; 'Wipe (and De-string)', 0.0 [feed mm/s], 33.9 [head mm/s]
G1 E0.635 F900
G1 X67.67 Y69.24 E0.635 F2034
G1 X67.37 Y68.79 E0.635
G1 X66.94 Y68.44 E0.635
G1 X66.42 Y68.22 E0.635
G1 X65.75 Y68.18 E0.635
G1 X65.18 Y68.37 E0.635
G1 X64.74 Y68.68 E0.635
G1 X64.48 Y69 E0.635
G1 X64.35 Y69.25 E0.635
G1 X64.12 Y69.2 E0.635
G1 X64.12 Y66.63 E0.635
G1 X64.13 Y66.39 E0.635
G1 X64.23 Y66.43 E0.635
G1 X64.4 Y66.87 E0.635
G1 X64.72 Y67.3 E0.635
G1 X65.18 Y67.64 E0.635
G1 X65.69 Y67.8 E0.635
G1 X66.06 Y67.82 E0.635
G1 X66.06 Y67.82 Z1.225 E0.635 F210
;
; 'Perimeter', 1.2 [feed mm/s], 29.5 [head mm/s]
G1 X67.23 Y71.04 E0.635 F15000
G1 X67.23 Y71.04 Z1.125 E0.635 F210
G1 E3.135 F900
G1 X67.03 Y70.99 E3.1438 F1770
G1 X66.56 Y71.3 E3.1673
G1 X66.14 Y71.42 E3.1853
G1 X65.66 Y71.39 E3.2054
G1 X65.08 Y71.1 E3.2323
G1 X64.79 Y70.75 E3.2513
G1 X64.58 Y70.2 E3.2754
G1 X64.62 Y69.64 E3.299
G1 X64.84 Y69.17 E3.3203
G1 X65.13 Y68.87 E3.3377
G1 X65.61 Y68.63 E3.36
G1 X66.03 Y68.58 E3.3775
G1 X66.43 Y68.64 E3.3944
G1 X66.99 Y68.96 E3.421
G1 X67.3 Y69.42 E3.4443
G1 X67.42 Y69.9 E3.4648
G1 X67.37 Y70.37 E3.4846
G1 X67.2 Y70.76 E3.5021
G1 X67.03 Y70.99 E3.514
G1 X67.09 Y71.19 E3.5229
;
; 'Wipe (and De-string)', 0.0 [feed mm/s], 33.9 [head mm/s]
G1 E1.0229 F900
G1 X67.23 Y71.04 E1.0229 F2034
G1 X67.03 Y70.99 E1.0229
G1 X66.56 Y71.3 E1.0229
G1 X66.14 Y71.42 E1.0229
G1 X65.66 Y71.39 E1.0229
G1 X65.08 Y71.1 E1.0229
G1 X64.79 Y70.75 E1.0229
G1 X64.58 Y70.2 E1.0229
G1 X64.62 Y69.64 E1.0229
G1 X64.84 Y69.17 E1.0229
G1 X65.13 Y68.87 E1.0229
G1 X65.61 Y68.63 E1.0229
G1 X66.03 Y68.58 E1.0229
G1 X66.43 Y68.64 E1.0229
G1 X66.99 Y68.96 E1.0229
G1 X67.3 Y69.42 E1.0229
G1 X67.42 Y69.9 E1.0229
G1 X67.37 Y70.37 E1.0229
G1 X67.2 Y70.76 E1.0229
G1 X67.03 Y70.99 E1.0229
G1 X67.09 Y71.19 E1.0229
G1 X67.09 Y71.19 Z1.225 E1.0229 F210
;
; 'Loop', 1.4 [feed mm/s], 33.9 [head mm/s]
G1 X67.87 Y65.61 E1.0229 F15000
G1 X67.87 Y65.61 Z1.125 E1.0229 F210
G1 E3.5229 F900
G1 X67.78 Y65.57 E3.527 F2034
G1 X67.56 Y65.05 E3.5504
G1 X67.29 Y64.72 E3.5681
G1 X66.98 Y64.46 E3.5849
G1 X66.56 Y64.25 E3.6042
G1 X65.88 Y64.17 E3.633
G1 X65.28 Y64.32 E3.6588
G1 X64.81 Y64.61 E3.6815
G1 X64.45 Y65.01 E3.7038
G1 X64.23 Y65.57 E3.7288
G1 X64.13 Y65.61 E3.7332
G1 X64.13 Y65.41 E3.7411
G1 X64.12 Y62.8 E3.8497
G1 X64.34 Y62.75 E3.8591
G1 X64.66 Y63.23 E3.883
G1 X65.05 Y63.56 E3.9043
G1 X65.57 Y63.78 E3.9279
G1 X66.07 Y63.82 E3.9487
G1 X66.56 Y63.74 E3.9694
G1 X67.05 Y63.5 E3.992
G1 X67.45 Y63.12 E4.0149
G1 X67.66 Y62.75 E4.0324
G1 X67.88 Y62.8 E4.0417
G1 X67.88 Y65.43 E4.1507
G1 X67.87 Y65.61 E4.1582
;
; 'Wipe (and De-string)', 0.0 [feed mm/s], 33.9 [head mm/s]
G1 E1.6582 F900
G1 X67.78 Y65.57 E1.6582 F2034
G1 X67.56 Y65.05 E1.6582
G1 X67.29 Y64.72 E1.6582
G1 X66.98 Y64.46 E1.6582
G1 X66.56 Y64.25 E1.6582
G1 X65.88 Y64.17 E1.6582
G1 X65.28 Y64.32 E1.6582
G1 X64.81 Y64.61 E1.6582
G1 X64.45 Y65.01 E1.6582
G1 X64.23 Y65.57 E1.6582
G1 X64.13 Y65.61 E1.6582
G1 X64.13 Y65.41 E1.6582
G1 X64.12 Y62.8 E1.6582
G1 X64.34 Y62.75 E1.6582
G1 X64.66 Y63.23 E1.6582
G1 X65.05 Y63.56 E1.6582
G1 X65.57 Y63.78 E1.6582
G1 X65.83 Y63.8 E1.6582
G1 X65.83 Y63.8 Z1.225 E1.6582 F210
;
; 'Perimeter', 1.2 [feed mm/s], 29.5 [head mm/s]
G1 X67.21 Y67.07 E1.6582 F15000
G1 X67.21 Y67.07 Z1.125 E1.6582 F210
G1 E4.1582 F900
G1 X67 Y67 E4.1672 F1770
G1 X66.54 Y67.31 E4.1903
G1 X66.07 Y67.43 E4.2105
G1 X65.57 Y67.36 E4.2314
G1 X65.09 Y67.1 E4.2539
G1 X64.81 Y66.77 E4.272
G1 X64.59 Y66.25 E4.2956
G1 X64.6 Y65.73 E4.317
G1 X64.81 Y65.22 E4.3403
G1 X65.1 Y64.89 E4.3586
G1 X65.59 Y64.64 E4.3812
G1 X66.08 Y64.58 E4.402
G1 X66.55 Y64.69 E4.4218
G1 X67.01 Y64.99 E4.4449
G1 X67.31 Y65.46 E4.4681
G1 X67.43 Y65.94 E4.4885
G1 X67.36 Y66.4 E4.5082
G1 X67.18 Y66.78 E4.5255
G1 X67 Y67 E4.5374
G1 X67.07 Y67.21 E4.5463
;
; 'Wipe (and De-string)', 0.0 [feed mm/s], 33.9 [head mm/s]
G1 E2.0463 F900
G1 X67.21 Y67.07 E2.0463 F2034
G1 X67 Y67 E2.0463
G1 X66.54 Y67.31 E2.0463
G1 X66.07 Y67.43 E2.0463
G1 X65.57 Y67.36 E2.0463
G1 X65.09 Y67.1 E2.0463
G1 X64.81 Y66.77 E2.0463
G1 X64.59 Y66.25 E2.0463
G1 X64.6 Y65.73 E2.0463
G1 X64.81 Y65.22 E2.0463
G1 X65.1 Y64.89 E2.0463
G1 X65.59 Y64.64 E2.0463
G1 X66.08 Y64.58 E2.0463
G1 X66.55 Y64.69 E2.0463
G1 X67.01 Y64.99 E2.0463
G1 X67.31 Y65.46 E2.0463
G1 X67.43 Y65.94 E2.0463
G1 X67.36 Y66.4 E2.0463
G1 X67.18 Y66.78 E2.0463
G1 X67 Y67 E2.0463
G1 X67.07 Y67.21 E2.0463
G1 X67.07 Y67.21 Z1.225 E2.0463 F210
;
; 'Perimeter', 1.2 [feed mm/s], 29.5 [head mm/s]
G1 X67.19 Y63.1 E2.0463 F15000
G1 X67.19 Y63.1 Z1.125 E2.0463 F210
G1 E4.5463 F900
G1 X66.98 Y63.02 E4.5554 F1770
G1 X66.43 Y63.36 E4.5823
G1 X66.03 Y63.42 E4.5993
G1 X65.6 Y63.36 E4.6172
G1 X65.12 Y63.12 E4.6395
G1 X64.84 Y62.82 E4.6567
G1 X64.62 Y62.35 E4.6783
G1 X64.59 Y61.8 E4.7013
G1 X64.74 Y61.34 E4.7214
G1 X65.07 Y60.91 E4.7436
G1 X65.58 Y60.64 E4.768
G1 X66.15 Y60.58 E4.7919
G1 X66.69 Y60.76 E4.8155
G1 X67.05 Y61.02 E4.8338
G1 X67.33 Y61.5 E4.8568
G1 X67.43 Y61.97 E4.877
G1 X67.35 Y62.41 E4.8955
G1 X67.23 Y62.71 E4.9088
G1 X66.98 Y63.02 E4.9254
G1 X67.04 Y63.23 E4.9345
;
; 'Wipe (and De-string)', 0.0 [feed mm/s], 33.9 [head mm/s]
G1 E2.4345 F900
G1 X67.19 Y63.1 E2.4345 F2034
G1 X66.98 Y63.02 E2.4345
G1 X66.43 Y63.36 E2.4345
G1 X66.03 Y63.42 E2.4345
G1 X65.6 Y63.36 E2.4345
G1 X65.12 Y63.12 E2.4345
G1 X64.84 Y62.82 E2.4345
G1 X64.62 Y62.35 E2.4345
G1 X64.59 Y61.8 E2.4345
G1 X64.74 Y61.34 E2.4345
G1 X65.07 Y60.91 E2.4345
G1 X65.58 Y60.64 E2.4345
G1 X66.15 Y60.58 E2.4345
G1 X66.69 Y60.76 E2.4345
G1 X67.05 Y61.02 E2.4345
G1 X67.33 Y61.5 E2.4345
G1 X67.43 Y61.97 E2.4345
G1 X67.35 Y62.41 E2.4345
G1 X67.23 Y62.71 E2.4345
G1 X66.98 Y63.02 E2.4345
G1 X67.04 Y63.23 E2.4345
G1 X67.04 Y63.23 Z1.225 E2.4345 F210
;
; 'Perimeter', 1.2 [feed mm/s], 29.5 [head mm/s]
G1 X67.58 Y71.4 E2.4345 F15000
G1 X67.58 Y71.4 Z1.125 E2.4345 F210
G1 E4.9345 F900
G1 X67.66 Y71.62 E4.9439 F1770
G1 X67.11 Y72.05 E4.973
G1 X66.43 Y72.26 E5.0026
G1 X65.78 Y72.28 E5.0297
G1 X65.26 Y72.19 E5.0516
G1 X64.77 Y71.97 E5.074
G1 X64.32 Y71.6 E5.0981
G1 X63.92 Y71.05 E5.1264
G1 X63.74 Y70.39 E5.155
G1 X63.72 Y70.01 E5.1708
G1 X63.72 Y62.02 E5.5026
G1 X63.79 Y61.3 E5.5329
G1 X64.13 Y60.6 E5.5652
G1 X64.67 Y60.09 E5.5959
G1 X65.26 Y59.81 E5.623
G1 X65.79 Y59.72 E5.6454
G1 X66.42 Y59.74 E5.6719
G1 X67.01 Y59.91 E5.6973
G1 X67.46 Y60.2 E5.7197
G1 X67.87 Y60.62 E5.7441
G1 X68.19 Y61.23 E5.7727
G1 X68.28 Y62.02 E5.8057
G1 X68.28 Y69.98 E6.1365
G1 X68.21 Y70.66 E6.165
G1 X67.99 Y71.2 E6.1892
G1 X67.66 Y71.62 E6.2114
G1 X67.44 Y71.54 E6.2209
;
; 'Wipe (and De-string)', 0.0 [feed mm/s], 33.9 [head mm/s]
G1 E3.7209 F900
G1 X67.58 Y71.4 E3.7209 F2034
G1 X67.66 Y71.62 E3.7209
G1 X67.11 Y72.05 E3.7209
G1 X66.43 Y72.26 E3.7209
G1 X65.78 Y72.28 E3.7209
G1 X65.26 Y72.19 E3.7209
G1 X64.77 Y71.97 E3.7209
G1 X64.32 Y71.6 E3.7209
G1 X63.92 Y71.05 E3.7209
G1 X63.74 Y70.39 E3.7209
G1 X63.72 Y70.01 E3.7209
G1 X63.72 Y65.69 E3.7209
G1 X63.72 Y65.69 Z1.225 E3.7209 F210
;
; 'Crown', 1.6 [feed mm/s], 32.2 [head mm/s]
G1 X64.97 Y60.44 E3.7209 F15000
G1 X64.97 Y60.44 Z1.125 E3.7209 F210
G1 E6.2209 F900
G1 X64.42 Y60.98 E6.259 F1929.8
G1 X64.23 Y61.41 E6.2828
G1 X64.15 Y61.92 E6.3085
G1 X64.17 Y62.36 E6.3303
;
; 'Crown', 0.8 [feed mm/s], 32.9 [head mm/s]
G1 X65.52 Y64.02 E6.3303 F15000
G1 X65.5 Y63.99 E6.3313 F1974.1
G1 X65.33 Y64.03 E6.3355
G1 X65.31 Y63.99 E6.3366
G1 X65.14 Y64.03 E6.3409
G1 X65.11 Y63.98 E6.3423
G1 X64.94 Y64.04 E6.3468
G1 X64.46 Y64.48 E6.3626
G1 X64.36 Y64.74 E6.3694
;
; 'Wipe (and De-string)', 0.0 [feed mm/s], 33.9 [head mm/s]
G1 E3.8694 F900
G1 X64.46 Y64.48 E3.8694 F2034
G1 X64.94 Y64.04 E3.8694
G1 X65.11 Y63.98 E3.8694
G1 X65.14 Y64.03 E3.8694
G1 X65.31 Y63.99 E3.8694
G1 X65.33 Y64.03 E3.8694
G1 X65.5 Y63.99 E3.8694
G1 X65.52 Y64.02 E3.8694
G1 X65.52 Y64.02 Z1.225 E3.8694 F210
;
; 'Crown', 0.8 [feed mm/s], 32.9 [head mm/s]
G1 X64.37 Y67.25 E3.8694 F15000
G1 X64.37 Y67.25 Z1.125 E3.8694 F210
G1 E6.3694 F900
G1 X64.45 Y67.52 E6.3762 F1974.2
G1 X64.94 Y67.96 E6.3923
G1 X65.11 Y68.02 E6.3968
G1 X65.14 Y67.97 E6.3982
G1 X65.31 Y68.01 E6.4025
G1 X65.33 Y67.97 E6.4037
G1 X65.5 Y68.01 E6.4079
G1 X65.52 Y67.98 E6.4089
;
; 'Crown', 1.0 [feed mm/s], 33.0 [head mm/s]
G1 X66.47 Y67.98 E6.4089 F15000
G1 X66.5 Y68 E6.4099 F1977.3
G1 X66.67 Y67.97 E6.4151
G1 X66.7 Y68.02 E6.4168
G1 X66.86 Y67.97 E6.4217
G1 X66.89 Y68.02 E6.4235
G1 X67.05 Y67.96 E6.4286
G1 X67.08 Y68.02 E6.4304
G1 X67.52 Y68.44 E6.448
G1 X67.63 Y68.71 E6.4566
;
; 'Crown', 1.6 [feed mm/s], 32.2 [head mm/s]
G1 X67.83 Y69.64 E6.4566 F15000
G1 X67.85 Y70.08 E6.4786 F1930
G1 X67.77 Y70.59 E6.5043
G1 X67.58 Y71.03 E6.5283
G1 X67.05 Y71.56 E6.5657
G1 X66.64 Y71.75 E6.5887
G1 X66.17 Y71.85 E6.6124
G1 X65.64 Y71.83 E6.6389
G1 X65.06 Y71.63 E6.6696
G1 X64.66 Y71.29 E6.6959
G1 X64.36 Y70.89 E6.7212
G1 X64.23 Y70.59 E6.7372
G1 X64.15 Y70.08 E6.7633
G1 X64.17 Y69.64 E6.7852
;
; 'Wipe (and De-string)', 0.0 [feed mm/s], 33.9 [head mm/s]
G1 E4.2852 F900
G1 X64.15 Y70.08 E4.2852 F2034
G1 X64.23 Y70.59 E4.2852
G1 X64.36 Y70.89 E4.2852
G1 X64.66 Y71.29 E4.2852
G1 X65.06 Y71.63 E4.2852
G1 X65.64 Y71.83 E4.2852
G1 X66.17 Y71.85 E4.2852
G1 X66.64 Y71.75 E4.2852
G1 X67.05 Y71.56 E4.2852
G1 X67.58 Y71.03 E4.2852
G1 X67.77 Y70.59 E4.2852
G1 X67.85 Y70.08 E4.2852
G1 X67.83 Y69.64 E4.2852
G1 X67.83 Y69.64 Z1.225 E4.2852 F210
;
; 'Crown', 1.0 [feed mm/s], 33.0 [head mm/s]
G1 X66.47 Y64.02 E4.2852 F15000
G1 X66.47 Y64.02 Z1.125 E4.2852 F210
G1 E6.7852 F900
G1 X66.5 Y64 E6.7862 F1977.3
G1 X66.67 Y64.03 E6.7913
G1 X66.7 Y63.98 E6.793
G1 X66.86 Y64.03 E6.798
G1 X66.89 Y63.98 E6.7998
G1 X67.08 Y63.98 E6.8053
G1 X67.05 Y64.04 E6.8072
G1 X67.52 Y63.56 E6.8266
G1 X67.63 Y63.29 E6.8351
;
; 'Crown', 1.6 [feed mm/s], 32.2 [head mm/s]
G1 X67.83 Y62.36 E6.8351 F15000
G1 X67.85 Y61.93 E6.857 F1930.3
G1 X67.77 Y61.41 E6.8835
G1 X67.59 Y60.99 E6.9066
G1 X67.05 Y60.44 E6.9452
G1 X66.64 Y60.25 E6.9683
G1 X66.17 Y60.15 E6.9922
G1 X65.64 Y60.17 E7.0189
G1 X65.08 Y60.37 E7.0489
;
; 'Wipe (and De-string)', 0.0 [feed mm/s], 33.9 [head mm/s]
G1 E4.5489 F900
G1 X65.64 Y60.17 E4.5489 F2034
G1 X66.17 Y60.15 E4.5489
G1 X66.64 Y60.25 E4.5489
G1 X67.05 Y60.44 E4.5489
G1 X67.59 Y60.99 E4.5489
G1 X67.77 Y61.41 E4.5489
G1 X67.85 Y61.93 E4.5489
G1 X67.83 Y62.36 E4.5489
G1 X67.83 Y62.36 Z1.725 E4.5489 F210
; END_LAYER_OBJECT z=1.12
;
; *** Cooling Extruder 1 to 0 C ***
; Guaranteed same extruder, cooling down
; BfB-style
M104 S0
; 5D-style
M104 S0

;
; fan off
M107
; *** G-code Postfix ***
;
M140 S0
G1 F3000 X0

;
;
;
; Estimated Build Time:   1.05 minutes
; Estimated Build Volume: 0.049 cm^3
; Estimated Build Cost:   $0.00
;
; *** Extrusion Time Breakdown ***
; * estimated time in [s]
; * before possibly slowing down for 'cool'
; * not including Z-travel
;	+-------------+-------------+-------------+-----------------------+
;	| Extruder #1 | Extruder #2 | Extruder #3 | Path Type             |
;	+-------------+-------------+-------------+-----------------------+
;	| 4.53749     | 0           | 0           | Move                  |
;	| 0           | 0           | 0           | Pillar                |
;	| 0           | 0           | 0           | Raft                  |
;	| 0           > 0           > 0           > Support Interface     |
;	| 0           | 0           | 0           | Support (may Stack)   |
;	| 14.7062     | 0           | 0           | Perimeter             |
;	| 7.08076     | 0           | 0           | Loop                  |
;	| 0           > 0           > 0           > Solid                 |
;	| 0           | 0           | 0           | Sparse Infill         |
;	| 0           | 0           | 0           | Stacked Sparse Infill |
;	| 30.4385     | 0           | 0           | Wipe (and De-string)  |
;	| 6.0672      > 0           > 0           > Crown                 |
;	| 0           | 0           | 0           | Prime Pillar          |
;	| 0           | 0           | 0           | Skirt                 |
;	| 0           | 0           | 0           | Pause                 |
;	| 0           > 0           > 0           > Extruder Warm-Up      |
;	+-------------+-------------+-------------+-----------------------+
; Total estimated (pre-cool) minutes: 1.05
