Parts,Description,Qty
USB1,320010003,1
R6,301010299,1
Y1,306030002,1
"R3, R4",301010298,2
C1,302010139,1
"R1, R2",301010289,2
R5,301010251,1
U1,310010010,1
F1,307010013,1
D2,304090043,1
D1,304090042,1
